%!PS-Adobe-3.0 EPSF-3.0
%%BoundingBox: 0 0 453 481 
%%LanguageLevel: 2
%%Pages: 1
%Orientation: Portrait
newpath
5.669291 42.447005 moveto
40.121008 42.447005 lineto
40.121008 53.712907 lineto
5.669291 53.712907 lineto
closepath
0.000000 0.000000 0.000000 setrgbcolor
fill
newpath
45.790299 31.181102 moveto
80.242016 31.181102 lineto
80.242016 42.447005 lineto
45.790299 42.447005 lineto
closepath
0.000000 0.000000 0.000000 setrgbcolor
fill
newpath
5.669291 64.978809 moveto
40.121008 64.978809 lineto
40.121008 76.244712 lineto
5.669291 76.244712 lineto
closepath
0.000000 0.000000 0.000000 setrgbcolor
fill
newpath
45.790299 53.712907 moveto
80.242016 53.712907 lineto
80.242016 64.978809 lineto
45.790299 64.978809 lineto
closepath
0.000000 0.000000 0.000000 setrgbcolor
fill
newpath
85.911307 42.447005 moveto
120.363024 42.447005 lineto
120.363024 53.712907 lineto
85.911307 53.712907 lineto
closepath
0.000000 0.000000 0.000000 setrgbcolor
fill
newpath
126.032315 31.181102 moveto
160.484031 31.181102 lineto
160.484031 42.447005 lineto
126.032315 42.447005 lineto
closepath
0.000000 0.000000 0.000000 setrgbcolor
fill
newpath
5.669291 87.510614 moveto
40.121008 87.510614 lineto
40.121008 98.776517 lineto
5.669291 98.776517 lineto
closepath
0.000000 0.000000 0.000000 setrgbcolor
fill
newpath
45.790299 76.244712 moveto
80.242016 76.244712 lineto
80.242016 87.510614 lineto
45.790299 87.510614 lineto
closepath
0.000000 0.000000 0.000000 setrgbcolor
fill
newpath
85.911307 64.978809 moveto
120.363024 64.978809 lineto
120.363024 76.244712 lineto
85.911307 76.244712 lineto
closepath
0.000000 0.000000 0.000000 setrgbcolor
fill
newpath
126.032315 53.712907 moveto
160.484031 53.712907 lineto
160.484031 64.978809 lineto
126.032315 64.978809 lineto
closepath
0.000000 0.000000 0.000000 setrgbcolor
fill
newpath
166.153323 42.447005 moveto
200.605039 42.447005 lineto
200.605039 53.712907 lineto
166.153323 53.712907 lineto
closepath
0.000000 0.000000 0.000000 setrgbcolor
fill
newpath
206.274331 31.181102 moveto
240.726047 31.181102 lineto
240.726047 42.447005 lineto
206.274331 42.447005 lineto
closepath
0.000000 0.000000 0.000000 setrgbcolor
fill
newpath
5.669291 110.042419 moveto
40.121008 110.042419 lineto
40.121008 121.308321 lineto
5.669291 121.308321 lineto
closepath
0.000000 0.000000 0.000000 setrgbcolor
fill
newpath
45.790299 98.776517 moveto
80.242016 98.776517 lineto
80.242016 110.042419 lineto
45.790299 110.042419 lineto
closepath
0.000000 0.000000 0.000000 setrgbcolor
fill
newpath
85.911307 87.510614 moveto
120.363024 87.510614 lineto
120.363024 98.776517 lineto
85.911307 98.776517 lineto
closepath
0.000000 0.000000 0.000000 setrgbcolor
fill
newpath
126.032315 76.244712 moveto
160.484031 76.244712 lineto
160.484031 87.510614 lineto
126.032315 87.510614 lineto
closepath
0.000000 0.000000 0.000000 setrgbcolor
fill
newpath
166.153323 64.978809 moveto
200.605039 64.978809 lineto
200.605039 76.244712 lineto
166.153323 76.244712 lineto
closepath
0.000000 0.000000 0.000000 setrgbcolor
fill
newpath
206.274331 53.712907 moveto
240.726047 53.712907 lineto
240.726047 64.978809 lineto
206.274331 64.978809 lineto
closepath
0.000000 0.000000 0.000000 setrgbcolor
fill
newpath
246.395339 42.447005 moveto
280.847055 42.447005 lineto
280.847055 53.712907 lineto
246.395339 53.712907 lineto
closepath
0.000000 0.000000 0.000000 setrgbcolor
fill
newpath
286.516346 31.181102 moveto
320.968063 31.181102 lineto
320.968063 42.447005 lineto
286.516346 42.447005 lineto
closepath
0.000000 0.000000 0.000000 setrgbcolor
fill
newpath
5.669291 132.574224 moveto
40.121008 132.574224 lineto
40.121008 143.840126 lineto
5.669291 143.840126 lineto
closepath
0.000000 0.000000 0.000000 setrgbcolor
fill
newpath
45.790299 121.308321 moveto
80.242016 121.308321 lineto
80.242016 132.574224 lineto
45.790299 132.574224 lineto
closepath
0.000000 0.000000 0.000000 setrgbcolor
fill
newpath
85.911307 110.042419 moveto
120.363024 110.042419 lineto
120.363024 121.308321 lineto
85.911307 121.308321 lineto
closepath
0.000000 0.000000 0.000000 setrgbcolor
fill
newpath
126.032315 98.776517 moveto
160.484031 98.776517 lineto
160.484031 110.042419 lineto
126.032315 110.042419 lineto
closepath
0.000000 0.000000 0.000000 setrgbcolor
fill
newpath
166.153323 87.510614 moveto
200.605039 87.510614 lineto
200.605039 98.776517 lineto
166.153323 98.776517 lineto
closepath
0.000000 0.000000 0.000000 setrgbcolor
fill
newpath
206.274331 76.244712 moveto
240.726047 76.244712 lineto
240.726047 87.510614 lineto
206.274331 87.510614 lineto
closepath
0.000000 0.000000 0.000000 setrgbcolor
fill
newpath
246.395339 64.978809 moveto
280.847055 64.978809 lineto
280.847055 76.244712 lineto
246.395339 76.244712 lineto
closepath
0.000000 0.000000 0.000000 setrgbcolor
fill
newpath
286.516346 53.712907 moveto
320.968063 53.712907 lineto
320.968063 64.978809 lineto
286.516346 64.978809 lineto
closepath
0.000000 0.000000 0.000000 setrgbcolor
fill
newpath
326.637354 42.447005 moveto
361.089071 42.447005 lineto
361.089071 53.712907 lineto
326.637354 53.712907 lineto
closepath
0.000000 0.000000 0.000000 setrgbcolor
fill
newpath
366.758362 31.181102 moveto
401.210079 31.181102 lineto
401.210079 42.447005 lineto
366.758362 42.447005 lineto
closepath
0.000000 0.000000 0.000000 setrgbcolor
fill
newpath
5.669291 155.106028 moveto
40.121008 155.106028 lineto
40.121008 166.371931 lineto
5.669291 166.371931 lineto
closepath
0.000000 0.000000 0.000000 setrgbcolor
fill
newpath
45.790299 143.840126 moveto
80.242016 143.840126 lineto
80.242016 155.106028 lineto
45.790299 155.106028 lineto
closepath
0.000000 0.000000 0.000000 setrgbcolor
fill
newpath
85.911307 132.574224 moveto
120.363024 132.574224 lineto
120.363024 143.840126 lineto
85.911307 143.840126 lineto
closepath
0.000000 0.000000 0.000000 setrgbcolor
fill
newpath
126.032315 121.308321 moveto
160.484031 121.308321 lineto
160.484031 132.574224 lineto
126.032315 132.574224 lineto
closepath
0.000000 0.000000 0.000000 setrgbcolor
fill
newpath
166.153323 110.042419 moveto
200.605039 110.042419 lineto
200.605039 121.308321 lineto
166.153323 121.308321 lineto
closepath
0.000000 0.000000 0.000000 setrgbcolor
fill
newpath
206.274331 98.776517 moveto
240.726047 98.776517 lineto
240.726047 110.042419 lineto
206.274331 110.042419 lineto
closepath
0.000000 0.000000 0.000000 setrgbcolor
fill
newpath
246.395339 87.510614 moveto
280.847055 87.510614 lineto
280.847055 98.776517 lineto
246.395339 98.776517 lineto
closepath
0.000000 0.000000 0.000000 setrgbcolor
fill
newpath
286.516346 76.244712 moveto
320.968063 76.244712 lineto
320.968063 87.510614 lineto
286.516346 87.510614 lineto
closepath
0.000000 0.000000 0.000000 setrgbcolor
fill
newpath
326.637354 64.978809 moveto
361.089071 64.978809 lineto
361.089071 76.244712 lineto
326.637354 76.244712 lineto
closepath
0.000000 0.000000 0.000000 setrgbcolor
fill
newpath
366.758362 53.712907 moveto
401.210079 53.712907 lineto
401.210079 64.978809 lineto
366.758362 64.978809 lineto
closepath
0.000000 0.000000 0.000000 setrgbcolor
fill
newpath
406.879370 42.447005 moveto
441.331087 42.447005 lineto
441.331087 53.712907 lineto
406.879370 53.712907 lineto
closepath
0.000000 0.000000 0.000000 setrgbcolor
fill
newpath
5.669291 177.637833 moveto
40.121008 177.637833 lineto
40.121008 188.903735 lineto
5.669291 188.903735 lineto
closepath
0.000000 0.000000 0.000000 setrgbcolor
fill
newpath
45.790299 166.371931 moveto
80.242016 166.371931 lineto
80.242016 177.637833 lineto
45.790299 177.637833 lineto
closepath
0.000000 0.000000 0.000000 setrgbcolor
fill
newpath
85.911307 155.106028 moveto
120.363024 155.106028 lineto
120.363024 166.371931 lineto
85.911307 166.371931 lineto
closepath
0.000000 0.000000 0.000000 setrgbcolor
fill
newpath
126.032315 143.840126 moveto
160.484031 143.840126 lineto
160.484031 155.106028 lineto
126.032315 155.106028 lineto
closepath
0.000000 0.000000 0.000000 setrgbcolor
fill
newpath
166.153323 132.574224 moveto
200.605039 132.574224 lineto
200.605039 143.840126 lineto
166.153323 143.840126 lineto
closepath
0.000000 0.000000 0.000000 setrgbcolor
fill
newpath
206.274331 121.308321 moveto
240.726047 121.308321 lineto
240.726047 132.574224 lineto
206.274331 132.574224 lineto
closepath
0.000000 0.000000 0.000000 setrgbcolor
fill
newpath
246.395339 110.042419 moveto
280.847055 110.042419 lineto
280.847055 121.308321 lineto
246.395339 121.308321 lineto
closepath
0.000000 0.000000 0.000000 setrgbcolor
fill
newpath
286.516346 98.776517 moveto
320.968063 98.776517 lineto
320.968063 110.042419 lineto
286.516346 110.042419 lineto
closepath
0.000000 0.000000 0.000000 setrgbcolor
fill
newpath
326.637354 87.510614 moveto
361.089071 87.510614 lineto
361.089071 98.776517 lineto
326.637354 98.776517 lineto
closepath
0.000000 0.000000 0.000000 setrgbcolor
fill
newpath
366.758362 76.244712 moveto
401.210079 76.244712 lineto
401.210079 87.510614 lineto
366.758362 87.510614 lineto
closepath
0.000000 0.000000 0.000000 setrgbcolor
fill
newpath
406.879370 64.978809 moveto
441.331087 64.978809 lineto
441.331087 76.244712 lineto
406.879370 76.244712 lineto
closepath
0.000000 0.000000 0.000000 setrgbcolor
fill
newpath
5.669291 200.169638 moveto
40.121008 200.169638 lineto
40.121008 211.435540 lineto
5.669291 211.435540 lineto
closepath
0.000000 0.000000 0.000000 setrgbcolor
fill
newpath
45.790299 188.903735 moveto
80.242016 188.903735 lineto
80.242016 200.169638 lineto
45.790299 200.169638 lineto
closepath
0.000000 0.000000 0.000000 setrgbcolor
fill
newpath
85.911307 177.637833 moveto
120.363024 177.637833 lineto
120.363024 188.903735 lineto
85.911307 188.903735 lineto
closepath
0.000000 0.000000 0.000000 setrgbcolor
fill
newpath
126.032315 166.371931 moveto
160.484031 166.371931 lineto
160.484031 177.637833 lineto
126.032315 177.637833 lineto
closepath
0.000000 0.000000 0.000000 setrgbcolor
fill
newpath
166.153323 155.106028 moveto
200.605039 155.106028 lineto
200.605039 166.371931 lineto
166.153323 166.371931 lineto
closepath
0.000000 0.000000 0.000000 setrgbcolor
fill
newpath
206.274331 143.840126 moveto
240.726047 143.840126 lineto
240.726047 155.106028 lineto
206.274331 155.106028 lineto
closepath
0.000000 0.000000 0.000000 setrgbcolor
fill
newpath
246.395339 132.574224 moveto
280.847055 132.574224 lineto
280.847055 143.840126 lineto
246.395339 143.840126 lineto
closepath
0.000000 0.000000 0.000000 setrgbcolor
fill
newpath
286.516346 121.308321 moveto
320.968063 121.308321 lineto
320.968063 132.574224 lineto
286.516346 132.574224 lineto
closepath
0.000000 0.000000 0.000000 setrgbcolor
fill
newpath
326.637354 110.042419 moveto
361.089071 110.042419 lineto
361.089071 121.308321 lineto
326.637354 121.308321 lineto
closepath
0.000000 0.000000 0.000000 setrgbcolor
fill
newpath
366.758362 98.776517 moveto
401.210079 98.776517 lineto
401.210079 110.042419 lineto
366.758362 110.042419 lineto
closepath
0.000000 0.000000 0.000000 setrgbcolor
fill
newpath
406.879370 87.510614 moveto
441.331087 87.510614 lineto
441.331087 98.776517 lineto
406.879370 98.776517 lineto
closepath
0.000000 0.000000 0.000000 setrgbcolor
fill
newpath
5.669291 222.701443 moveto
40.121008 222.701443 lineto
40.121008 233.967345 lineto
5.669291 233.967345 lineto
closepath
0.000000 0.000000 0.000000 setrgbcolor
fill
newpath
45.790299 211.435540 moveto
80.242016 211.435540 lineto
80.242016 222.701443 lineto
45.790299 222.701443 lineto
closepath
0.000000 0.000000 0.000000 setrgbcolor
fill
newpath
85.911307 200.169638 moveto
120.363024 200.169638 lineto
120.363024 211.435540 lineto
85.911307 211.435540 lineto
closepath
0.000000 0.000000 0.000000 setrgbcolor
fill
newpath
126.032315 188.903735 moveto
160.484031 188.903735 lineto
160.484031 200.169638 lineto
126.032315 200.169638 lineto
closepath
0.000000 0.000000 0.000000 setrgbcolor
fill
newpath
166.153323 177.637833 moveto
200.605039 177.637833 lineto
200.605039 188.903735 lineto
166.153323 188.903735 lineto
closepath
0.000000 0.000000 0.000000 setrgbcolor
fill
newpath
206.274331 166.371931 moveto
240.726047 166.371931 lineto
240.726047 177.637833 lineto
206.274331 177.637833 lineto
closepath
0.000000 0.000000 0.000000 setrgbcolor
fill
newpath
246.395339 155.106028 moveto
280.847055 155.106028 lineto
280.847055 166.371931 lineto
246.395339 166.371931 lineto
closepath
0.000000 0.000000 0.000000 setrgbcolor
fill
newpath
286.516346 143.840126 moveto
320.968063 143.840126 lineto
320.968063 155.106028 lineto
286.516346 155.106028 lineto
closepath
0.000000 0.000000 0.000000 setrgbcolor
fill
newpath
326.637354 132.574224 moveto
361.089071 132.574224 lineto
361.089071 143.840126 lineto
326.637354 143.840126 lineto
closepath
0.000000 0.000000 0.000000 setrgbcolor
fill
newpath
366.758362 121.308321 moveto
401.210079 121.308321 lineto
401.210079 132.574224 lineto
366.758362 132.574224 lineto
closepath
0.000000 0.000000 0.000000 setrgbcolor
fill
newpath
406.879370 110.042419 moveto
441.331087 110.042419 lineto
441.331087 121.308321 lineto
406.879370 121.308321 lineto
closepath
0.000000 0.000000 0.000000 setrgbcolor
fill
newpath
5.669291 245.233247 moveto
40.121008 245.233247 lineto
40.121008 256.499150 lineto
5.669291 256.499150 lineto
closepath
0.000000 0.000000 0.000000 setrgbcolor
fill
newpath
45.790299 233.967345 moveto
80.242016 233.967345 lineto
80.242016 245.233247 lineto
45.790299 245.233247 lineto
closepath
0.000000 0.000000 0.000000 setrgbcolor
fill
newpath
85.911307 222.701443 moveto
120.363024 222.701443 lineto
120.363024 233.967345 lineto
85.911307 233.967345 lineto
closepath
0.000000 0.000000 0.000000 setrgbcolor
fill
newpath
126.032315 211.435540 moveto
160.484031 211.435540 lineto
160.484031 222.701443 lineto
126.032315 222.701443 lineto
closepath
0.000000 0.000000 0.000000 setrgbcolor
fill
newpath
166.153323 200.169638 moveto
200.605039 200.169638 lineto
200.605039 211.435540 lineto
166.153323 211.435540 lineto
closepath
0.000000 0.000000 0.000000 setrgbcolor
fill
newpath
206.274331 188.903735 moveto
240.726047 188.903735 lineto
240.726047 200.169638 lineto
206.274331 200.169638 lineto
closepath
0.000000 0.000000 0.000000 setrgbcolor
fill
newpath
246.395339 177.637833 moveto
280.847055 177.637833 lineto
280.847055 188.903735 lineto
246.395339 188.903735 lineto
closepath
0.000000 0.000000 0.000000 setrgbcolor
fill
newpath
286.516346 166.371931 moveto
320.968063 166.371931 lineto
320.968063 177.637833 lineto
286.516346 177.637833 lineto
closepath
0.000000 0.000000 0.000000 setrgbcolor
fill
newpath
326.637354 155.106028 moveto
361.089071 155.106028 lineto
361.089071 166.371931 lineto
326.637354 166.371931 lineto
closepath
0.000000 0.000000 0.000000 setrgbcolor
fill
newpath
366.758362 143.840126 moveto
401.210079 143.840126 lineto
401.210079 155.106028 lineto
366.758362 155.106028 lineto
closepath
0.000000 0.000000 0.000000 setrgbcolor
fill
newpath
406.879370 132.574224 moveto
441.331087 132.574224 lineto
441.331087 143.840126 lineto
406.879370 143.840126 lineto
closepath
0.000000 0.000000 0.000000 setrgbcolor
fill
newpath
5.669291 267.765052 moveto
40.121008 267.765052 lineto
40.121008 279.030954 lineto
5.669291 279.030954 lineto
closepath
0.000000 0.000000 0.000000 setrgbcolor
fill
newpath
45.790299 256.499150 moveto
80.242016 256.499150 lineto
80.242016 267.765052 lineto
45.790299 267.765052 lineto
closepath
0.000000 0.000000 0.000000 setrgbcolor
fill
newpath
85.911307 245.233247 moveto
120.363024 245.233247 lineto
120.363024 256.499150 lineto
85.911307 256.499150 lineto
closepath
0.000000 0.000000 0.000000 setrgbcolor
fill
newpath
126.032315 233.967345 moveto
160.484031 233.967345 lineto
160.484031 245.233247 lineto
126.032315 245.233247 lineto
closepath
0.000000 0.000000 0.000000 setrgbcolor
fill
newpath
166.153323 222.701443 moveto
200.605039 222.701443 lineto
200.605039 233.967345 lineto
166.153323 233.967345 lineto
closepath
0.000000 0.000000 0.000000 setrgbcolor
fill
newpath
206.274331 211.435540 moveto
240.726047 211.435540 lineto
240.726047 222.701443 lineto
206.274331 222.701443 lineto
closepath
0.000000 0.000000 0.000000 setrgbcolor
fill
newpath
246.395339 200.169638 moveto
280.847055 200.169638 lineto
280.847055 211.435540 lineto
246.395339 211.435540 lineto
closepath
0.000000 0.000000 0.000000 setrgbcolor
fill
newpath
286.516346 188.903735 moveto
320.968063 188.903735 lineto
320.968063 200.169638 lineto
286.516346 200.169638 lineto
closepath
0.000000 0.000000 0.000000 setrgbcolor
fill
newpath
326.637354 177.637833 moveto
361.089071 177.637833 lineto
361.089071 188.903735 lineto
326.637354 188.903735 lineto
closepath
0.000000 0.000000 0.000000 setrgbcolor
fill
newpath
366.758362 166.371931 moveto
401.210079 166.371931 lineto
401.210079 177.637833 lineto
366.758362 177.637833 lineto
closepath
0.000000 0.000000 0.000000 setrgbcolor
fill
newpath
406.879370 155.106028 moveto
441.331087 155.106028 lineto
441.331087 166.371931 lineto
406.879370 166.371931 lineto
closepath
0.000000 0.000000 0.000000 setrgbcolor
fill
newpath
5.669291 290.296857 moveto
40.121008 290.296857 lineto
40.121008 301.562759 lineto
5.669291 301.562759 lineto
closepath
0.000000 0.000000 0.000000 setrgbcolor
fill
newpath
45.790299 279.030954 moveto
80.242016 279.030954 lineto
80.242016 290.296857 lineto
45.790299 290.296857 lineto
closepath
0.000000 0.000000 0.000000 setrgbcolor
fill
newpath
85.911307 267.765052 moveto
120.363024 267.765052 lineto
120.363024 279.030954 lineto
85.911307 279.030954 lineto
closepath
0.000000 0.000000 0.000000 setrgbcolor
fill
newpath
126.032315 256.499150 moveto
160.484031 256.499150 lineto
160.484031 267.765052 lineto
126.032315 267.765052 lineto
closepath
0.000000 0.000000 0.000000 setrgbcolor
fill
newpath
166.153323 245.233247 moveto
200.605039 245.233247 lineto
200.605039 256.499150 lineto
166.153323 256.499150 lineto
closepath
0.000000 0.000000 0.000000 setrgbcolor
fill
newpath
206.274331 233.967345 moveto
240.726047 233.967345 lineto
240.726047 245.233247 lineto
206.274331 245.233247 lineto
closepath
0.000000 0.000000 0.000000 setrgbcolor
fill
newpath
246.395339 222.701443 moveto
280.847055 222.701443 lineto
280.847055 233.967345 lineto
246.395339 233.967345 lineto
closepath
0.000000 0.000000 0.000000 setrgbcolor
fill
newpath
286.516346 211.435540 moveto
320.968063 211.435540 lineto
320.968063 222.701443 lineto
286.516346 222.701443 lineto
closepath
0.000000 0.000000 0.000000 setrgbcolor
fill
newpath
326.637354 200.169638 moveto
361.089071 200.169638 lineto
361.089071 211.435540 lineto
326.637354 211.435540 lineto
closepath
0.000000 0.000000 0.000000 setrgbcolor
fill
newpath
366.758362 188.903735 moveto
401.210079 188.903735 lineto
401.210079 200.169638 lineto
366.758362 200.169638 lineto
closepath
0.000000 0.000000 0.000000 setrgbcolor
fill
newpath
406.879370 177.637833 moveto
441.331087 177.637833 lineto
441.331087 188.903735 lineto
406.879370 188.903735 lineto
closepath
0.000000 0.000000 0.000000 setrgbcolor
fill
newpath
5.669291 312.828661 moveto
40.121008 312.828661 lineto
40.121008 324.094564 lineto
5.669291 324.094564 lineto
closepath
0.000000 0.000000 0.000000 setrgbcolor
fill
newpath
45.790299 301.562759 moveto
80.242016 301.562759 lineto
80.242016 312.828661 lineto
45.790299 312.828661 lineto
closepath
0.000000 0.000000 0.000000 setrgbcolor
fill
newpath
85.911307 290.296857 moveto
120.363024 290.296857 lineto
120.363024 301.562759 lineto
85.911307 301.562759 lineto
closepath
0.000000 0.000000 0.000000 setrgbcolor
fill
newpath
126.032315 279.030954 moveto
160.484031 279.030954 lineto
160.484031 290.296857 lineto
126.032315 290.296857 lineto
closepath
0.000000 0.000000 0.000000 setrgbcolor
fill
newpath
166.153323 267.765052 moveto
200.605039 267.765052 lineto
200.605039 279.030954 lineto
166.153323 279.030954 lineto
closepath
0.000000 0.000000 0.000000 setrgbcolor
fill
newpath
206.274331 256.499150 moveto
240.726047 256.499150 lineto
240.726047 267.765052 lineto
206.274331 267.765052 lineto
closepath
0.000000 0.000000 0.000000 setrgbcolor
fill
newpath
246.395339 245.233247 moveto
280.847055 245.233247 lineto
280.847055 256.499150 lineto
246.395339 256.499150 lineto
closepath
0.000000 0.000000 0.000000 setrgbcolor
fill
newpath
286.516346 233.967345 moveto
320.968063 233.967345 lineto
320.968063 245.233247 lineto
286.516346 245.233247 lineto
closepath
0.000000 0.000000 0.000000 setrgbcolor
fill
newpath
326.637354 222.701443 moveto
361.089071 222.701443 lineto
361.089071 233.967345 lineto
326.637354 233.967345 lineto
closepath
0.000000 0.000000 0.000000 setrgbcolor
fill
newpath
366.758362 211.435540 moveto
401.210079 211.435540 lineto
401.210079 222.701443 lineto
366.758362 222.701443 lineto
closepath
0.000000 0.000000 0.000000 setrgbcolor
fill
newpath
406.879370 200.169638 moveto
441.331087 200.169638 lineto
441.331087 211.435540 lineto
406.879370 211.435540 lineto
closepath
0.000000 0.000000 0.000000 setrgbcolor
fill
newpath
5.669291 335.360466 moveto
40.121008 335.360466 lineto
40.121008 346.626369 lineto
5.669291 346.626369 lineto
closepath
0.000000 0.000000 0.000000 setrgbcolor
fill
newpath
45.790299 324.094564 moveto
80.242016 324.094564 lineto
80.242016 335.360466 lineto
45.790299 335.360466 lineto
closepath
0.000000 0.000000 0.000000 setrgbcolor
fill
newpath
85.911307 312.828661 moveto
120.363024 312.828661 lineto
120.363024 324.094564 lineto
85.911307 324.094564 lineto
closepath
0.000000 0.000000 0.000000 setrgbcolor
fill
newpath
126.032315 301.562759 moveto
160.484031 301.562759 lineto
160.484031 312.828661 lineto
126.032315 312.828661 lineto
closepath
0.000000 0.000000 0.000000 setrgbcolor
fill
newpath
166.153323 290.296857 moveto
200.605039 290.296857 lineto
200.605039 301.562759 lineto
166.153323 301.562759 lineto
closepath
0.000000 0.000000 0.000000 setrgbcolor
fill
newpath
206.274331 279.030954 moveto
240.726047 279.030954 lineto
240.726047 290.296857 lineto
206.274331 290.296857 lineto
closepath
0.000000 0.000000 0.000000 setrgbcolor
fill
newpath
246.395339 267.765052 moveto
280.847055 267.765052 lineto
280.847055 279.030954 lineto
246.395339 279.030954 lineto
closepath
0.000000 0.000000 0.000000 setrgbcolor
fill
newpath
286.516346 256.499150 moveto
320.968063 256.499150 lineto
320.968063 267.765052 lineto
286.516346 267.765052 lineto
closepath
0.000000 0.000000 0.000000 setrgbcolor
fill
newpath
326.637354 245.233247 moveto
361.089071 245.233247 lineto
361.089071 256.499150 lineto
326.637354 256.499150 lineto
closepath
0.000000 0.000000 0.000000 setrgbcolor
fill
newpath
366.758362 233.967345 moveto
401.210079 233.967345 lineto
401.210079 245.233247 lineto
366.758362 245.233247 lineto
closepath
0.000000 0.000000 0.000000 setrgbcolor
fill
newpath
406.879370 222.701443 moveto
441.331087 222.701443 lineto
441.331087 233.967345 lineto
406.879370 233.967345 lineto
closepath
0.000000 0.000000 0.000000 setrgbcolor
fill
newpath
5.669291 357.892271 moveto
40.121008 357.892271 lineto
40.121008 369.158173 lineto
5.669291 369.158173 lineto
closepath
0.000000 0.000000 0.000000 setrgbcolor
fill
newpath
45.790299 346.626369 moveto
80.242016 346.626369 lineto
80.242016 357.892271 lineto
45.790299 357.892271 lineto
closepath
0.000000 0.000000 0.000000 setrgbcolor
fill
newpath
85.911307 335.360466 moveto
120.363024 335.360466 lineto
120.363024 346.626369 lineto
85.911307 346.626369 lineto
closepath
0.000000 0.000000 0.000000 setrgbcolor
fill
newpath
126.032315 324.094564 moveto
160.484031 324.094564 lineto
160.484031 335.360466 lineto
126.032315 335.360466 lineto
closepath
0.000000 0.000000 0.000000 setrgbcolor
fill
newpath
166.153323 312.828661 moveto
200.605039 312.828661 lineto
200.605039 324.094564 lineto
166.153323 324.094564 lineto
closepath
0.000000 0.000000 0.000000 setrgbcolor
fill
newpath
206.274331 301.562759 moveto
240.726047 301.562759 lineto
240.726047 312.828661 lineto
206.274331 312.828661 lineto
closepath
0.000000 0.000000 0.000000 setrgbcolor
fill
newpath
246.395339 290.296857 moveto
280.847055 290.296857 lineto
280.847055 301.562759 lineto
246.395339 301.562759 lineto
closepath
0.000000 0.000000 0.000000 setrgbcolor
fill
newpath
286.516346 279.030954 moveto
320.968063 279.030954 lineto
320.968063 290.296857 lineto
286.516346 290.296857 lineto
closepath
0.000000 0.000000 0.000000 setrgbcolor
fill
newpath
326.637354 267.765052 moveto
361.089071 267.765052 lineto
361.089071 279.030954 lineto
326.637354 279.030954 lineto
closepath
0.000000 0.000000 0.000000 setrgbcolor
fill
newpath
366.758362 256.499150 moveto
401.210079 256.499150 lineto
401.210079 267.765052 lineto
366.758362 267.765052 lineto
closepath
0.000000 0.000000 0.000000 setrgbcolor
fill
newpath
406.879370 245.233247 moveto
441.331087 245.233247 lineto
441.331087 256.499150 lineto
406.879370 256.499150 lineto
closepath
0.000000 0.000000 0.000000 setrgbcolor
fill
newpath
5.669291 380.424076 moveto
40.121008 380.424076 lineto
40.121008 391.689978 lineto
5.669291 391.689978 lineto
closepath
0.000000 0.000000 0.000000 setrgbcolor
fill
newpath
45.790299 369.158173 moveto
80.242016 369.158173 lineto
80.242016 380.424076 lineto
45.790299 380.424076 lineto
closepath
0.000000 0.000000 0.000000 setrgbcolor
fill
newpath
85.911307 357.892271 moveto
120.363024 357.892271 lineto
120.363024 369.158173 lineto
85.911307 369.158173 lineto
closepath
0.000000 0.000000 0.000000 setrgbcolor
fill
newpath
126.032315 346.626369 moveto
160.484031 346.626369 lineto
160.484031 357.892271 lineto
126.032315 357.892271 lineto
closepath
0.000000 0.000000 0.000000 setrgbcolor
fill
newpath
166.153323 335.360466 moveto
200.605039 335.360466 lineto
200.605039 346.626369 lineto
166.153323 346.626369 lineto
closepath
0.000000 0.000000 0.000000 setrgbcolor
fill
newpath
206.274331 324.094564 moveto
240.726047 324.094564 lineto
240.726047 335.360466 lineto
206.274331 335.360466 lineto
closepath
0.000000 0.000000 0.000000 setrgbcolor
fill
newpath
246.395339 312.828661 moveto
280.847055 312.828661 lineto
280.847055 324.094564 lineto
246.395339 324.094564 lineto
closepath
0.000000 0.000000 0.000000 setrgbcolor
fill
newpath
286.516346 301.562759 moveto
320.968063 301.562759 lineto
320.968063 312.828661 lineto
286.516346 312.828661 lineto
closepath
0.000000 0.000000 0.000000 setrgbcolor
fill
newpath
326.637354 290.296857 moveto
361.089071 290.296857 lineto
361.089071 301.562759 lineto
326.637354 301.562759 lineto
closepath
0.000000 0.000000 0.000000 setrgbcolor
fill
newpath
366.758362 279.030954 moveto
401.210079 279.030954 lineto
401.210079 290.296857 lineto
366.758362 290.296857 lineto
closepath
0.000000 0.000000 0.000000 setrgbcolor
fill
newpath
406.879370 267.765052 moveto
441.331087 267.765052 lineto
441.331087 279.030954 lineto
406.879370 279.030954 lineto
closepath
0.000000 0.000000 0.000000 setrgbcolor
fill
newpath
5.669291 402.955880 moveto
40.121008 402.955880 lineto
40.121008 414.221783 lineto
5.669291 414.221783 lineto
closepath
0.000000 0.000000 0.000000 setrgbcolor
fill
newpath
45.790299 391.689978 moveto
80.242016 391.689978 lineto
80.242016 402.955880 lineto
45.790299 402.955880 lineto
closepath
0.000000 0.000000 0.000000 setrgbcolor
fill
newpath
85.911307 380.424076 moveto
120.363024 380.424076 lineto
120.363024 391.689978 lineto
85.911307 391.689978 lineto
closepath
0.000000 0.000000 0.000000 setrgbcolor
fill
newpath
126.032315 369.158173 moveto
160.484031 369.158173 lineto
160.484031 380.424076 lineto
126.032315 380.424076 lineto
closepath
0.000000 0.000000 0.000000 setrgbcolor
fill
newpath
166.153323 357.892271 moveto
200.605039 357.892271 lineto
200.605039 369.158173 lineto
166.153323 369.158173 lineto
closepath
0.000000 0.000000 0.000000 setrgbcolor
fill
newpath
206.274331 346.626369 moveto
240.726047 346.626369 lineto
240.726047 357.892271 lineto
206.274331 357.892271 lineto
closepath
0.000000 0.000000 0.000000 setrgbcolor
fill
newpath
246.395339 335.360466 moveto
280.847055 335.360466 lineto
280.847055 346.626369 lineto
246.395339 346.626369 lineto
closepath
0.000000 0.000000 0.000000 setrgbcolor
fill
newpath
286.516346 324.094564 moveto
320.968063 324.094564 lineto
320.968063 335.360466 lineto
286.516346 335.360466 lineto
closepath
0.000000 0.000000 0.000000 setrgbcolor
fill
newpath
326.637354 312.828661 moveto
361.089071 312.828661 lineto
361.089071 324.094564 lineto
326.637354 324.094564 lineto
closepath
0.000000 0.000000 0.000000 setrgbcolor
fill
newpath
366.758362 301.562759 moveto
401.210079 301.562759 lineto
401.210079 312.828661 lineto
366.758362 312.828661 lineto
closepath
0.000000 0.000000 0.000000 setrgbcolor
fill
newpath
406.879370 290.296857 moveto
441.331087 290.296857 lineto
441.331087 301.562759 lineto
406.879370 301.562759 lineto
closepath
0.000000 0.000000 0.000000 setrgbcolor
fill
newpath
5.669291 425.487685 moveto
40.121008 425.487685 lineto
40.121008 436.753587 lineto
5.669291 436.753587 lineto
closepath
0.000000 0.000000 0.000000 setrgbcolor
fill
newpath
45.790299 414.221783 moveto
80.242016 414.221783 lineto
80.242016 425.487685 lineto
45.790299 425.487685 lineto
closepath
0.000000 0.000000 0.000000 setrgbcolor
fill
newpath
85.911307 402.955880 moveto
120.363024 402.955880 lineto
120.363024 414.221783 lineto
85.911307 414.221783 lineto
closepath
0.000000 0.000000 0.000000 setrgbcolor
fill
newpath
126.032315 391.689978 moveto
160.484031 391.689978 lineto
160.484031 402.955880 lineto
126.032315 402.955880 lineto
closepath
0.000000 0.000000 0.000000 setrgbcolor
fill
newpath
166.153323 380.424076 moveto
200.605039 380.424076 lineto
200.605039 391.689978 lineto
166.153323 391.689978 lineto
closepath
0.000000 0.000000 0.000000 setrgbcolor
fill
newpath
206.274331 369.158173 moveto
240.726047 369.158173 lineto
240.726047 380.424076 lineto
206.274331 380.424076 lineto
closepath
0.000000 0.000000 0.000000 setrgbcolor
fill
newpath
246.395339 357.892271 moveto
280.847055 357.892271 lineto
280.847055 369.158173 lineto
246.395339 369.158173 lineto
closepath
0.000000 0.000000 0.000000 setrgbcolor
fill
newpath
286.516346 346.626369 moveto
320.968063 346.626369 lineto
320.968063 357.892271 lineto
286.516346 357.892271 lineto
closepath
0.000000 0.000000 0.000000 setrgbcolor
fill
newpath
326.637354 335.360466 moveto
361.089071 335.360466 lineto
361.089071 346.626369 lineto
326.637354 346.626369 lineto
closepath
0.000000 0.000000 0.000000 setrgbcolor
fill
newpath
366.758362 324.094564 moveto
401.210079 324.094564 lineto
401.210079 335.360466 lineto
366.758362 335.360466 lineto
closepath
0.000000 0.000000 0.000000 setrgbcolor
fill
newpath
406.879370 312.828661 moveto
441.331087 312.828661 lineto
441.331087 324.094564 lineto
406.879370 324.094564 lineto
closepath
0.000000 0.000000 0.000000 setrgbcolor
fill
newpath
45.790299 436.753587 moveto
80.242016 436.753587 lineto
80.242016 448.019490 lineto
45.790299 448.019490 lineto
closepath
0.000000 0.000000 0.000000 setrgbcolor
fill
newpath
85.911307 425.487685 moveto
120.363024 425.487685 lineto
120.363024 436.753587 lineto
85.911307 436.753587 lineto
closepath
0.000000 0.000000 0.000000 setrgbcolor
fill
newpath
126.032315 414.221783 moveto
160.484031 414.221783 lineto
160.484031 425.487685 lineto
126.032315 425.487685 lineto
closepath
0.000000 0.000000 0.000000 setrgbcolor
fill
newpath
166.153323 402.955880 moveto
200.605039 402.955880 lineto
200.605039 414.221783 lineto
166.153323 414.221783 lineto
closepath
0.000000 0.000000 0.000000 setrgbcolor
fill
newpath
206.274331 391.689978 moveto
240.726047 391.689978 lineto
240.726047 402.955880 lineto
206.274331 402.955880 lineto
closepath
0.000000 0.000000 0.000000 setrgbcolor
fill
newpath
246.395339 380.424076 moveto
280.847055 380.424076 lineto
280.847055 391.689978 lineto
246.395339 391.689978 lineto
closepath
0.000000 0.000000 0.000000 setrgbcolor
fill
newpath
286.516346 369.158173 moveto
320.968063 369.158173 lineto
320.968063 380.424076 lineto
286.516346 380.424076 lineto
closepath
0.000000 0.000000 0.000000 setrgbcolor
fill
newpath
326.637354 357.892271 moveto
361.089071 357.892271 lineto
361.089071 369.158173 lineto
326.637354 369.158173 lineto
closepath
0.000000 0.000000 0.000000 setrgbcolor
fill
newpath
366.758362 346.626369 moveto
401.210079 346.626369 lineto
401.210079 357.892271 lineto
366.758362 357.892271 lineto
closepath
0.000000 0.000000 0.000000 setrgbcolor
fill
newpath
406.879370 335.360466 moveto
441.331087 335.360466 lineto
441.331087 346.626369 lineto
406.879370 346.626369 lineto
closepath
0.000000 0.000000 0.000000 setrgbcolor
fill
newpath
126.032315 436.753587 moveto
160.484031 436.753587 lineto
160.484031 448.019490 lineto
126.032315 448.019490 lineto
closepath
0.000000 0.000000 0.000000 setrgbcolor
fill
newpath
166.153323 425.487685 moveto
200.605039 425.487685 lineto
200.605039 436.753587 lineto
166.153323 436.753587 lineto
closepath
0.000000 0.000000 0.000000 setrgbcolor
fill
newpath
206.274331 414.221783 moveto
240.726047 414.221783 lineto
240.726047 425.487685 lineto
206.274331 425.487685 lineto
closepath
0.000000 0.000000 0.000000 setrgbcolor
fill
newpath
246.395339 402.955880 moveto
280.847055 402.955880 lineto
280.847055 414.221783 lineto
246.395339 414.221783 lineto
closepath
0.000000 0.000000 0.000000 setrgbcolor
fill
newpath
286.516346 391.689978 moveto
320.968063 391.689978 lineto
320.968063 402.955880 lineto
286.516346 402.955880 lineto
closepath
0.000000 0.000000 0.000000 setrgbcolor
fill
newpath
326.637354 380.424076 moveto
361.089071 380.424076 lineto
361.089071 391.689978 lineto
326.637354 391.689978 lineto
closepath
0.000000 0.000000 0.000000 setrgbcolor
fill
newpath
366.758362 369.158173 moveto
401.210079 369.158173 lineto
401.210079 380.424076 lineto
366.758362 380.424076 lineto
closepath
0.000000 0.000000 0.000000 setrgbcolor
fill
newpath
406.879370 357.892271 moveto
441.331087 357.892271 lineto
441.331087 369.158173 lineto
406.879370 369.158173 lineto
closepath
0.000000 0.000000 0.000000 setrgbcolor
fill
newpath
206.274331 436.753587 moveto
240.726047 436.753587 lineto
240.726047 448.019490 lineto
206.274331 448.019490 lineto
closepath
0.000000 0.000000 0.000000 setrgbcolor
fill
newpath
246.395339 425.487685 moveto
280.847055 425.487685 lineto
280.847055 436.753587 lineto
246.395339 436.753587 lineto
closepath
0.000000 0.000000 0.000000 setrgbcolor
fill
newpath
286.516346 414.221783 moveto
320.968063 414.221783 lineto
320.968063 425.487685 lineto
286.516346 425.487685 lineto
closepath
0.000000 0.000000 0.000000 setrgbcolor
fill
newpath
326.637354 402.955880 moveto
361.089071 402.955880 lineto
361.089071 414.221783 lineto
326.637354 414.221783 lineto
closepath
0.000000 0.000000 0.000000 setrgbcolor
fill
newpath
366.758362 391.689978 moveto
401.210079 391.689978 lineto
401.210079 402.955880 lineto
366.758362 402.955880 lineto
closepath
0.000000 0.000000 0.000000 setrgbcolor
fill
newpath
406.879370 380.424076 moveto
441.331087 380.424076 lineto
441.331087 391.689978 lineto
406.879370 391.689978 lineto
closepath
0.000000 0.000000 0.000000 setrgbcolor
fill
newpath
286.516346 436.753587 moveto
320.968063 436.753587 lineto
320.968063 448.019490 lineto
286.516346 448.019490 lineto
closepath
0.000000 0.000000 0.000000 setrgbcolor
fill
newpath
326.637354 425.487685 moveto
361.089071 425.487685 lineto
361.089071 436.753587 lineto
326.637354 436.753587 lineto
closepath
0.000000 0.000000 0.000000 setrgbcolor
fill
newpath
366.758362 414.221783 moveto
401.210079 414.221783 lineto
401.210079 425.487685 lineto
366.758362 425.487685 lineto
closepath
0.000000 0.000000 0.000000 setrgbcolor
fill
newpath
406.879370 402.955880 moveto
441.331087 402.955880 lineto
441.331087 414.221783 lineto
406.879370 414.221783 lineto
closepath
0.000000 0.000000 0.000000 setrgbcolor
fill
newpath
366.758362 436.753587 moveto
401.210079 436.753587 lineto
401.210079 448.019490 lineto
366.758362 448.019490 lineto
closepath
0.000000 0.000000 0.000000 setrgbcolor
fill
newpath
406.879370 425.487685 moveto
441.331087 425.487685 lineto
441.331087 436.753587 lineto
406.879370 436.753587 lineto
closepath
0.000000 0.000000 0.000000 setrgbcolor
fill
