%!PS-Adobe-3.0 EPSF-3.0
%%BoundingBox: 0 0 453 481 
%%LanguageLevel: 2
%%Pages: 1
%Orientation: Portrait
newpath
5.669291 19.769839 moveto
34.451717 19.769839 lineto
34.451717 31.035742 lineto
5.669291 31.035742 lineto
closepath
0.000000 0.000000 0.000000 setrgbcolor
fill
newpath
40.121008 8.503937 moveto
68.903433 8.503937 lineto
68.903433 19.769839 lineto
40.121008 19.769839 lineto
closepath
0.000000 0.000000 0.000000 setrgbcolor
fill
newpath
5.669291 42.301644 moveto
34.451717 42.301644 lineto
34.451717 53.567546 lineto
5.669291 53.567546 lineto
closepath
0.000000 0.000000 0.000000 setrgbcolor
fill
newpath
40.121008 31.035742 moveto
68.903433 31.035742 lineto
68.903433 42.301644 lineto
40.121008 42.301644 lineto
closepath
0.000000 0.000000 0.000000 setrgbcolor
fill
newpath
74.572724 19.769839 moveto
103.355150 19.769839 lineto
103.355150 31.035742 lineto
74.572724 31.035742 lineto
closepath
0.000000 0.000000 0.000000 setrgbcolor
fill
newpath
109.024441 8.503937 moveto
137.806866 8.503937 lineto
137.806866 19.769839 lineto
109.024441 19.769839 lineto
closepath
0.000000 0.000000 0.000000 setrgbcolor
fill
newpath
5.669291 64.833449 moveto
34.451717 64.833449 lineto
34.451717 76.099351 lineto
5.669291 76.099351 lineto
closepath
0.000000 0.000000 0.000000 setrgbcolor
fill
newpath
40.121008 53.567546 moveto
68.903433 53.567546 lineto
68.903433 64.833449 lineto
40.121008 64.833449 lineto
closepath
0.000000 0.000000 0.000000 setrgbcolor
fill
newpath
74.572724 42.301644 moveto
103.355150 42.301644 lineto
103.355150 53.567546 lineto
74.572724 53.567546 lineto
closepath
0.000000 0.000000 0.000000 setrgbcolor
fill
newpath
109.024441 31.035742 moveto
137.806866 31.035742 lineto
137.806866 42.301644 lineto
109.024441 42.301644 lineto
closepath
0.000000 0.000000 0.000000 setrgbcolor
fill
newpath
143.476157 19.769839 moveto
172.258583 19.769839 lineto
172.258583 31.035742 lineto
143.476157 31.035742 lineto
closepath
0.000000 0.000000 0.000000 setrgbcolor
fill
newpath
177.927874 8.503937 moveto
206.710299 8.503937 lineto
206.710299 19.769839 lineto
177.927874 19.769839 lineto
closepath
0.000000 0.000000 0.000000 setrgbcolor
fill
newpath
5.669291 87.365254 moveto
34.451717 87.365254 lineto
34.451717 98.631156 lineto
5.669291 98.631156 lineto
closepath
0.000000 0.000000 0.000000 setrgbcolor
fill
newpath
40.121008 76.099351 moveto
68.903433 76.099351 lineto
68.903433 87.365254 lineto
40.121008 87.365254 lineto
closepath
0.000000 0.000000 0.000000 setrgbcolor
fill
newpath
74.572724 64.833449 moveto
103.355150 64.833449 lineto
103.355150 76.099351 lineto
74.572724 76.099351 lineto
closepath
0.000000 0.000000 0.000000 setrgbcolor
fill
newpath
109.024441 53.567546 moveto
137.806866 53.567546 lineto
137.806866 64.833449 lineto
109.024441 64.833449 lineto
closepath
0.000000 0.000000 0.000000 setrgbcolor
fill
newpath
143.476157 42.301644 moveto
172.258583 42.301644 lineto
172.258583 53.567546 lineto
143.476157 53.567546 lineto
closepath
0.000000 0.000000 0.000000 setrgbcolor
fill
newpath
177.927874 31.035742 moveto
206.710299 31.035742 lineto
206.710299 42.301644 lineto
177.927874 42.301644 lineto
closepath
0.000000 0.000000 0.000000 setrgbcolor
fill
newpath
212.379591 19.769839 moveto
241.162016 19.769839 lineto
241.162016 31.035742 lineto
212.379591 31.035742 lineto
closepath
0.000000 0.000000 0.000000 setrgbcolor
fill
newpath
246.831307 8.503937 moveto
275.613732 8.503937 lineto
275.613732 19.769839 lineto
246.831307 19.769839 lineto
closepath
0.000000 0.000000 0.000000 setrgbcolor
fill
newpath
5.669291 109.897058 moveto
34.451717 109.897058 lineto
34.451717 121.162961 lineto
5.669291 121.162961 lineto
closepath
0.000000 0.000000 0.000000 setrgbcolor
fill
newpath
40.121008 98.631156 moveto
68.903433 98.631156 lineto
68.903433 109.897058 lineto
40.121008 109.897058 lineto
closepath
0.000000 0.000000 0.000000 setrgbcolor
fill
newpath
74.572724 87.365254 moveto
103.355150 87.365254 lineto
103.355150 98.631156 lineto
74.572724 98.631156 lineto
closepath
0.000000 0.000000 0.000000 setrgbcolor
fill
newpath
109.024441 76.099351 moveto
137.806866 76.099351 lineto
137.806866 87.365254 lineto
109.024441 87.365254 lineto
closepath
0.000000 0.000000 0.000000 setrgbcolor
fill
newpath
143.476157 64.833449 moveto
172.258583 64.833449 lineto
172.258583 76.099351 lineto
143.476157 76.099351 lineto
closepath
0.000000 0.000000 0.000000 setrgbcolor
fill
newpath
177.927874 53.567546 moveto
206.710299 53.567546 lineto
206.710299 64.833449 lineto
177.927874 64.833449 lineto
closepath
0.000000 0.000000 0.000000 setrgbcolor
fill
newpath
212.379591 42.301644 moveto
241.162016 42.301644 lineto
241.162016 53.567546 lineto
212.379591 53.567546 lineto
closepath
0.000000 0.000000 0.000000 setrgbcolor
fill
newpath
246.831307 31.035742 moveto
275.613732 31.035742 lineto
275.613732 42.301644 lineto
246.831307 42.301644 lineto
closepath
0.000000 0.000000 0.000000 setrgbcolor
fill
newpath
281.283024 19.769839 moveto
310.065449 19.769839 lineto
310.065449 31.035742 lineto
281.283024 31.035742 lineto
closepath
0.000000 0.000000 0.000000 setrgbcolor
fill
newpath
315.734740 8.503937 moveto
344.517165 8.503937 lineto
344.517165 19.769839 lineto
315.734740 19.769839 lineto
closepath
0.000000 0.000000 0.000000 setrgbcolor
fill
newpath
5.669291 132.428863 moveto
34.451717 132.428863 lineto
34.451717 143.694765 lineto
5.669291 143.694765 lineto
closepath
0.000000 0.000000 0.000000 setrgbcolor
fill
newpath
40.121008 121.162961 moveto
68.903433 121.162961 lineto
68.903433 132.428863 lineto
40.121008 132.428863 lineto
closepath
0.000000 0.000000 0.000000 setrgbcolor
fill
newpath
74.572724 109.897058 moveto
103.355150 109.897058 lineto
103.355150 121.162961 lineto
74.572724 121.162961 lineto
closepath
0.000000 0.000000 0.000000 setrgbcolor
fill
newpath
109.024441 98.631156 moveto
137.806866 98.631156 lineto
137.806866 109.897058 lineto
109.024441 109.897058 lineto
closepath
0.000000 0.000000 0.000000 setrgbcolor
fill
newpath
143.476157 87.365254 moveto
172.258583 87.365254 lineto
172.258583 98.631156 lineto
143.476157 98.631156 lineto
closepath
0.000000 0.000000 0.000000 setrgbcolor
fill
newpath
177.927874 76.099351 moveto
206.710299 76.099351 lineto
206.710299 87.365254 lineto
177.927874 87.365254 lineto
closepath
0.000000 0.000000 0.000000 setrgbcolor
fill
newpath
212.379591 64.833449 moveto
241.162016 64.833449 lineto
241.162016 76.099351 lineto
212.379591 76.099351 lineto
closepath
0.000000 0.000000 0.000000 setrgbcolor
fill
newpath
246.831307 53.567546 moveto
275.613732 53.567546 lineto
275.613732 64.833449 lineto
246.831307 64.833449 lineto
closepath
0.000000 0.000000 0.000000 setrgbcolor
fill
newpath
281.283024 42.301644 moveto
310.065449 42.301644 lineto
310.065449 53.567546 lineto
281.283024 53.567546 lineto
closepath
0.000000 0.000000 0.000000 setrgbcolor
fill
newpath
315.734740 31.035742 moveto
344.517165 31.035742 lineto
344.517165 42.301644 lineto
315.734740 42.301644 lineto
closepath
0.000000 0.000000 0.000000 setrgbcolor
fill
newpath
350.186457 19.769839 moveto
378.968882 19.769839 lineto
378.968882 31.035742 lineto
350.186457 31.035742 lineto
closepath
0.000000 0.000000 0.000000 setrgbcolor
fill
newpath
384.638173 8.503937 moveto
413.420598 8.503937 lineto
413.420598 19.769839 lineto
384.638173 19.769839 lineto
closepath
0.000000 0.000000 0.000000 setrgbcolor
fill
newpath
5.669291 154.960668 moveto
34.451717 154.960668 lineto
34.451717 166.226570 lineto
5.669291 166.226570 lineto
closepath
0.000000 0.000000 0.000000 setrgbcolor
fill
newpath
40.121008 143.694765 moveto
68.903433 143.694765 lineto
68.903433 154.960668 lineto
40.121008 154.960668 lineto
closepath
0.000000 0.000000 0.000000 setrgbcolor
fill
newpath
74.572724 132.428863 moveto
103.355150 132.428863 lineto
103.355150 143.694765 lineto
74.572724 143.694765 lineto
closepath
0.000000 0.000000 0.000000 setrgbcolor
fill
newpath
109.024441 121.162961 moveto
137.806866 121.162961 lineto
137.806866 132.428863 lineto
109.024441 132.428863 lineto
closepath
0.000000 0.000000 0.000000 setrgbcolor
fill
newpath
143.476157 109.897058 moveto
172.258583 109.897058 lineto
172.258583 121.162961 lineto
143.476157 121.162961 lineto
closepath
0.000000 0.000000 0.000000 setrgbcolor
fill
newpath
177.927874 98.631156 moveto
206.710299 98.631156 lineto
206.710299 109.897058 lineto
177.927874 109.897058 lineto
closepath
0.000000 0.000000 0.000000 setrgbcolor
fill
newpath
212.379591 87.365254 moveto
241.162016 87.365254 lineto
241.162016 98.631156 lineto
212.379591 98.631156 lineto
closepath
0.000000 0.000000 0.000000 setrgbcolor
fill
newpath
246.831307 76.099351 moveto
275.613732 76.099351 lineto
275.613732 87.365254 lineto
246.831307 87.365254 lineto
closepath
0.000000 0.000000 0.000000 setrgbcolor
fill
newpath
281.283024 64.833449 moveto
310.065449 64.833449 lineto
310.065449 76.099351 lineto
281.283024 76.099351 lineto
closepath
0.000000 0.000000 0.000000 setrgbcolor
fill
newpath
315.734740 53.567546 moveto
344.517165 53.567546 lineto
344.517165 64.833449 lineto
315.734740 64.833449 lineto
closepath
0.000000 0.000000 0.000000 setrgbcolor
fill
newpath
350.186457 42.301644 moveto
378.968882 42.301644 lineto
378.968882 53.567546 lineto
350.186457 53.567546 lineto
closepath
0.000000 0.000000 0.000000 setrgbcolor
fill
newpath
384.638173 31.035742 moveto
413.420598 31.035742 lineto
413.420598 42.301644 lineto
384.638173 42.301644 lineto
closepath
0.000000 0.000000 0.000000 setrgbcolor
fill
newpath
419.089890 19.769839 moveto
447.872315 19.769839 lineto
447.872315 31.035742 lineto
419.089890 31.035742 lineto
closepath
0.000000 0.000000 0.000000 setrgbcolor
fill
newpath
5.669291 177.492472 moveto
34.451717 177.492472 lineto
34.451717 188.758375 lineto
5.669291 188.758375 lineto
closepath
0.000000 0.000000 0.000000 setrgbcolor
fill
newpath
40.121008 166.226570 moveto
68.903433 166.226570 lineto
68.903433 177.492472 lineto
40.121008 177.492472 lineto
closepath
0.000000 0.000000 0.000000 setrgbcolor
fill
newpath
74.572724 154.960668 moveto
103.355150 154.960668 lineto
103.355150 166.226570 lineto
74.572724 166.226570 lineto
closepath
0.000000 0.000000 0.000000 setrgbcolor
fill
newpath
109.024441 143.694765 moveto
137.806866 143.694765 lineto
137.806866 154.960668 lineto
109.024441 154.960668 lineto
closepath
0.000000 0.000000 0.000000 setrgbcolor
fill
newpath
143.476157 132.428863 moveto
172.258583 132.428863 lineto
172.258583 143.694765 lineto
143.476157 143.694765 lineto
closepath
0.000000 0.000000 0.000000 setrgbcolor
fill
newpath
177.927874 121.162961 moveto
206.710299 121.162961 lineto
206.710299 132.428863 lineto
177.927874 132.428863 lineto
closepath
0.000000 0.000000 0.000000 setrgbcolor
fill
newpath
212.379591 109.897058 moveto
241.162016 109.897058 lineto
241.162016 121.162961 lineto
212.379591 121.162961 lineto
closepath
0.000000 0.000000 0.000000 setrgbcolor
fill
newpath
246.831307 98.631156 moveto
275.613732 98.631156 lineto
275.613732 109.897058 lineto
246.831307 109.897058 lineto
closepath
0.000000 0.000000 0.000000 setrgbcolor
fill
newpath
281.283024 87.365254 moveto
310.065449 87.365254 lineto
310.065449 98.631156 lineto
281.283024 98.631156 lineto
closepath
0.000000 0.000000 0.000000 setrgbcolor
fill
newpath
315.734740 76.099351 moveto
344.517165 76.099351 lineto
344.517165 87.365254 lineto
315.734740 87.365254 lineto
closepath
0.000000 0.000000 0.000000 setrgbcolor
fill
newpath
350.186457 64.833449 moveto
378.968882 64.833449 lineto
378.968882 76.099351 lineto
350.186457 76.099351 lineto
closepath
0.000000 0.000000 0.000000 setrgbcolor
fill
newpath
384.638173 53.567546 moveto
413.420598 53.567546 lineto
413.420598 64.833449 lineto
384.638173 64.833449 lineto
closepath
0.000000 0.000000 0.000000 setrgbcolor
fill
newpath
419.089890 42.301644 moveto
447.872315 42.301644 lineto
447.872315 53.567546 lineto
419.089890 53.567546 lineto
closepath
0.000000 0.000000 0.000000 setrgbcolor
fill
newpath
5.669291 200.024277 moveto
34.451717 200.024277 lineto
34.451717 211.290180 lineto
5.669291 211.290180 lineto
closepath
0.000000 0.000000 0.000000 setrgbcolor
fill
newpath
40.121008 188.758375 moveto
68.903433 188.758375 lineto
68.903433 200.024277 lineto
40.121008 200.024277 lineto
closepath
0.000000 0.000000 0.000000 setrgbcolor
fill
newpath
74.572724 177.492472 moveto
103.355150 177.492472 lineto
103.355150 188.758375 lineto
74.572724 188.758375 lineto
closepath
0.000000 0.000000 0.000000 setrgbcolor
fill
newpath
109.024441 166.226570 moveto
137.806866 166.226570 lineto
137.806866 177.492472 lineto
109.024441 177.492472 lineto
closepath
0.000000 0.000000 0.000000 setrgbcolor
fill
newpath
143.476157 154.960668 moveto
172.258583 154.960668 lineto
172.258583 166.226570 lineto
143.476157 166.226570 lineto
closepath
0.000000 0.000000 0.000000 setrgbcolor
fill
newpath
177.927874 143.694765 moveto
206.710299 143.694765 lineto
206.710299 154.960668 lineto
177.927874 154.960668 lineto
closepath
0.000000 0.000000 0.000000 setrgbcolor
fill
newpath
212.379591 132.428863 moveto
241.162016 132.428863 lineto
241.162016 143.694765 lineto
212.379591 143.694765 lineto
closepath
0.000000 0.000000 0.000000 setrgbcolor
fill
newpath
246.831307 121.162961 moveto
275.613732 121.162961 lineto
275.613732 132.428863 lineto
246.831307 132.428863 lineto
closepath
0.000000 0.000000 0.000000 setrgbcolor
fill
newpath
281.283024 109.897058 moveto
310.065449 109.897058 lineto
310.065449 121.162961 lineto
281.283024 121.162961 lineto
closepath
0.000000 0.000000 0.000000 setrgbcolor
fill
newpath
315.734740 98.631156 moveto
344.517165 98.631156 lineto
344.517165 109.897058 lineto
315.734740 109.897058 lineto
closepath
0.000000 0.000000 0.000000 setrgbcolor
fill
newpath
350.186457 87.365254 moveto
378.968882 87.365254 lineto
378.968882 98.631156 lineto
350.186457 98.631156 lineto
closepath
0.000000 0.000000 0.000000 setrgbcolor
fill
newpath
384.638173 76.099351 moveto
413.420598 76.099351 lineto
413.420598 87.365254 lineto
384.638173 87.365254 lineto
closepath
0.000000 0.000000 0.000000 setrgbcolor
fill
newpath
419.089890 64.833449 moveto
447.872315 64.833449 lineto
447.872315 76.099351 lineto
419.089890 76.099351 lineto
closepath
0.000000 0.000000 0.000000 setrgbcolor
fill
newpath
5.669291 222.556082 moveto
34.451717 222.556082 lineto
34.451717 233.821984 lineto
5.669291 233.821984 lineto
closepath
0.000000 0.000000 0.000000 setrgbcolor
fill
newpath
40.121008 211.290180 moveto
68.903433 211.290180 lineto
68.903433 222.556082 lineto
40.121008 222.556082 lineto
closepath
0.000000 0.000000 0.000000 setrgbcolor
fill
newpath
74.572724 200.024277 moveto
103.355150 200.024277 lineto
103.355150 211.290180 lineto
74.572724 211.290180 lineto
closepath
0.000000 0.000000 0.000000 setrgbcolor
fill
newpath
109.024441 188.758375 moveto
137.806866 188.758375 lineto
137.806866 200.024277 lineto
109.024441 200.024277 lineto
closepath
0.000000 0.000000 0.000000 setrgbcolor
fill
newpath
143.476157 177.492472 moveto
172.258583 177.492472 lineto
172.258583 188.758375 lineto
143.476157 188.758375 lineto
closepath
0.000000 0.000000 0.000000 setrgbcolor
fill
newpath
177.927874 166.226570 moveto
206.710299 166.226570 lineto
206.710299 177.492472 lineto
177.927874 177.492472 lineto
closepath
0.000000 0.000000 0.000000 setrgbcolor
fill
newpath
212.379591 154.960668 moveto
241.162016 154.960668 lineto
241.162016 166.226570 lineto
212.379591 166.226570 lineto
closepath
0.000000 0.000000 0.000000 setrgbcolor
fill
newpath
246.831307 143.694765 moveto
275.613732 143.694765 lineto
275.613732 154.960668 lineto
246.831307 154.960668 lineto
closepath
0.000000 0.000000 0.000000 setrgbcolor
fill
newpath
281.283024 132.428863 moveto
310.065449 132.428863 lineto
310.065449 143.694765 lineto
281.283024 143.694765 lineto
closepath
0.000000 0.000000 0.000000 setrgbcolor
fill
newpath
315.734740 121.162961 moveto
344.517165 121.162961 lineto
344.517165 132.428863 lineto
315.734740 132.428863 lineto
closepath
0.000000 0.000000 0.000000 setrgbcolor
fill
newpath
350.186457 109.897058 moveto
378.968882 109.897058 lineto
378.968882 121.162961 lineto
350.186457 121.162961 lineto
closepath
0.000000 0.000000 0.000000 setrgbcolor
fill
newpath
384.638173 98.631156 moveto
413.420598 98.631156 lineto
413.420598 109.897058 lineto
384.638173 109.897058 lineto
closepath
0.000000 0.000000 0.000000 setrgbcolor
fill
newpath
419.089890 87.365254 moveto
447.872315 87.365254 lineto
447.872315 98.631156 lineto
419.089890 98.631156 lineto
closepath
0.000000 0.000000 0.000000 setrgbcolor
fill
newpath
5.669291 245.087887 moveto
34.451717 245.087887 lineto
34.451717 256.353789 lineto
5.669291 256.353789 lineto
closepath
0.000000 0.000000 0.000000 setrgbcolor
fill
newpath
40.121008 233.821984 moveto
68.903433 233.821984 lineto
68.903433 245.087887 lineto
40.121008 245.087887 lineto
closepath
0.000000 0.000000 0.000000 setrgbcolor
fill
newpath
74.572724 222.556082 moveto
103.355150 222.556082 lineto
103.355150 233.821984 lineto
74.572724 233.821984 lineto
closepath
0.000000 0.000000 0.000000 setrgbcolor
fill
newpath
109.024441 211.290180 moveto
137.806866 211.290180 lineto
137.806866 222.556082 lineto
109.024441 222.556082 lineto
closepath
0.000000 0.000000 0.000000 setrgbcolor
fill
newpath
143.476157 200.024277 moveto
172.258583 200.024277 lineto
172.258583 211.290180 lineto
143.476157 211.290180 lineto
closepath
0.000000 0.000000 0.000000 setrgbcolor
fill
newpath
177.927874 188.758375 moveto
206.710299 188.758375 lineto
206.710299 200.024277 lineto
177.927874 200.024277 lineto
closepath
0.000000 0.000000 0.000000 setrgbcolor
fill
newpath
212.379591 177.492472 moveto
241.162016 177.492472 lineto
241.162016 188.758375 lineto
212.379591 188.758375 lineto
closepath
0.000000 0.000000 0.000000 setrgbcolor
fill
newpath
246.831307 166.226570 moveto
275.613732 166.226570 lineto
275.613732 177.492472 lineto
246.831307 177.492472 lineto
closepath
0.000000 0.000000 0.000000 setrgbcolor
fill
newpath
281.283024 154.960668 moveto
310.065449 154.960668 lineto
310.065449 166.226570 lineto
281.283024 166.226570 lineto
closepath
0.000000 0.000000 0.000000 setrgbcolor
fill
newpath
315.734740 143.694765 moveto
344.517165 143.694765 lineto
344.517165 154.960668 lineto
315.734740 154.960668 lineto
closepath
0.000000 0.000000 0.000000 setrgbcolor
fill
newpath
350.186457 132.428863 moveto
378.968882 132.428863 lineto
378.968882 143.694765 lineto
350.186457 143.694765 lineto
closepath
0.000000 0.000000 0.000000 setrgbcolor
fill
newpath
384.638173 121.162961 moveto
413.420598 121.162961 lineto
413.420598 132.428863 lineto
384.638173 132.428863 lineto
closepath
0.000000 0.000000 0.000000 setrgbcolor
fill
newpath
419.089890 109.897058 moveto
447.872315 109.897058 lineto
447.872315 121.162961 lineto
419.089890 121.162961 lineto
closepath
0.000000 0.000000 0.000000 setrgbcolor
fill
newpath
5.669291 267.619691 moveto
34.451717 267.619691 lineto
34.451717 278.885594 lineto
5.669291 278.885594 lineto
closepath
0.000000 0.000000 0.000000 setrgbcolor
fill
newpath
40.121008 256.353789 moveto
68.903433 256.353789 lineto
68.903433 267.619691 lineto
40.121008 267.619691 lineto
closepath
0.000000 0.000000 0.000000 setrgbcolor
fill
newpath
74.572724 245.087887 moveto
103.355150 245.087887 lineto
103.355150 256.353789 lineto
74.572724 256.353789 lineto
closepath
0.000000 0.000000 0.000000 setrgbcolor
fill
newpath
109.024441 233.821984 moveto
137.806866 233.821984 lineto
137.806866 245.087887 lineto
109.024441 245.087887 lineto
closepath
0.000000 0.000000 0.000000 setrgbcolor
fill
newpath
143.476157 222.556082 moveto
172.258583 222.556082 lineto
172.258583 233.821984 lineto
143.476157 233.821984 lineto
closepath
0.000000 0.000000 0.000000 setrgbcolor
fill
newpath
177.927874 211.290180 moveto
206.710299 211.290180 lineto
206.710299 222.556082 lineto
177.927874 222.556082 lineto
closepath
0.000000 0.000000 0.000000 setrgbcolor
fill
newpath
212.379591 200.024277 moveto
241.162016 200.024277 lineto
241.162016 211.290180 lineto
212.379591 211.290180 lineto
closepath
0.000000 0.000000 0.000000 setrgbcolor
fill
newpath
246.831307 188.758375 moveto
275.613732 188.758375 lineto
275.613732 200.024277 lineto
246.831307 200.024277 lineto
closepath
0.000000 0.000000 0.000000 setrgbcolor
fill
newpath
281.283024 177.492472 moveto
310.065449 177.492472 lineto
310.065449 188.758375 lineto
281.283024 188.758375 lineto
closepath
0.000000 0.000000 0.000000 setrgbcolor
fill
newpath
315.734740 166.226570 moveto
344.517165 166.226570 lineto
344.517165 177.492472 lineto
315.734740 177.492472 lineto
closepath
0.000000 0.000000 0.000000 setrgbcolor
fill
newpath
350.186457 154.960668 moveto
378.968882 154.960668 lineto
378.968882 166.226570 lineto
350.186457 166.226570 lineto
closepath
0.000000 0.000000 0.000000 setrgbcolor
fill
newpath
384.638173 143.694765 moveto
413.420598 143.694765 lineto
413.420598 154.960668 lineto
384.638173 154.960668 lineto
closepath
0.000000 0.000000 0.000000 setrgbcolor
fill
newpath
419.089890 132.428863 moveto
447.872315 132.428863 lineto
447.872315 143.694765 lineto
419.089890 143.694765 lineto
closepath
0.000000 0.000000 0.000000 setrgbcolor
fill
newpath
5.669291 290.151496 moveto
34.451717 290.151496 lineto
34.451717 301.417398 lineto
5.669291 301.417398 lineto
closepath
0.000000 0.000000 0.000000 setrgbcolor
fill
newpath
40.121008 278.885594 moveto
68.903433 278.885594 lineto
68.903433 290.151496 lineto
40.121008 290.151496 lineto
closepath
0.000000 0.000000 0.000000 setrgbcolor
fill
newpath
74.572724 267.619691 moveto
103.355150 267.619691 lineto
103.355150 278.885594 lineto
74.572724 278.885594 lineto
closepath
0.000000 0.000000 0.000000 setrgbcolor
fill
newpath
109.024441 256.353789 moveto
137.806866 256.353789 lineto
137.806866 267.619691 lineto
109.024441 267.619691 lineto
closepath
0.000000 0.000000 0.000000 setrgbcolor
fill
newpath
143.476157 245.087887 moveto
172.258583 245.087887 lineto
172.258583 256.353789 lineto
143.476157 256.353789 lineto
closepath
0.000000 0.000000 0.000000 setrgbcolor
fill
newpath
177.927874 233.821984 moveto
206.710299 233.821984 lineto
206.710299 245.087887 lineto
177.927874 245.087887 lineto
closepath
0.000000 0.000000 0.000000 setrgbcolor
fill
newpath
212.379591 222.556082 moveto
241.162016 222.556082 lineto
241.162016 233.821984 lineto
212.379591 233.821984 lineto
closepath
0.000000 0.000000 0.000000 setrgbcolor
fill
newpath
246.831307 211.290180 moveto
275.613732 211.290180 lineto
275.613732 222.556082 lineto
246.831307 222.556082 lineto
closepath
0.000000 0.000000 0.000000 setrgbcolor
fill
newpath
281.283024 200.024277 moveto
310.065449 200.024277 lineto
310.065449 211.290180 lineto
281.283024 211.290180 lineto
closepath
0.000000 0.000000 0.000000 setrgbcolor
fill
newpath
315.734740 188.758375 moveto
344.517165 188.758375 lineto
344.517165 200.024277 lineto
315.734740 200.024277 lineto
closepath
0.000000 0.000000 0.000000 setrgbcolor
fill
newpath
350.186457 177.492472 moveto
378.968882 177.492472 lineto
378.968882 188.758375 lineto
350.186457 188.758375 lineto
closepath
0.000000 0.000000 0.000000 setrgbcolor
fill
newpath
384.638173 166.226570 moveto
413.420598 166.226570 lineto
413.420598 177.492472 lineto
384.638173 177.492472 lineto
closepath
0.000000 0.000000 0.000000 setrgbcolor
fill
newpath
419.089890 154.960668 moveto
447.872315 154.960668 lineto
447.872315 166.226570 lineto
419.089890 166.226570 lineto
closepath
0.000000 0.000000 0.000000 setrgbcolor
fill
newpath
5.669291 312.683301 moveto
34.451717 312.683301 lineto
34.451717 323.949203 lineto
5.669291 323.949203 lineto
closepath
0.000000 0.000000 0.000000 setrgbcolor
fill
newpath
40.121008 301.417398 moveto
68.903433 301.417398 lineto
68.903433 312.683301 lineto
40.121008 312.683301 lineto
closepath
0.000000 0.000000 0.000000 setrgbcolor
fill
newpath
74.572724 290.151496 moveto
103.355150 290.151496 lineto
103.355150 301.417398 lineto
74.572724 301.417398 lineto
closepath
0.000000 0.000000 0.000000 setrgbcolor
fill
newpath
109.024441 278.885594 moveto
137.806866 278.885594 lineto
137.806866 290.151496 lineto
109.024441 290.151496 lineto
closepath
0.000000 0.000000 0.000000 setrgbcolor
fill
newpath
143.476157 267.619691 moveto
172.258583 267.619691 lineto
172.258583 278.885594 lineto
143.476157 278.885594 lineto
closepath
0.000000 0.000000 0.000000 setrgbcolor
fill
newpath
177.927874 256.353789 moveto
206.710299 256.353789 lineto
206.710299 267.619691 lineto
177.927874 267.619691 lineto
closepath
0.000000 0.000000 0.000000 setrgbcolor
fill
newpath
212.379591 245.087887 moveto
241.162016 245.087887 lineto
241.162016 256.353789 lineto
212.379591 256.353789 lineto
closepath
0.000000 0.000000 0.000000 setrgbcolor
fill
newpath
246.831307 233.821984 moveto
275.613732 233.821984 lineto
275.613732 245.087887 lineto
246.831307 245.087887 lineto
closepath
0.000000 0.000000 0.000000 setrgbcolor
fill
newpath
281.283024 222.556082 moveto
310.065449 222.556082 lineto
310.065449 233.821984 lineto
281.283024 233.821984 lineto
closepath
0.000000 0.000000 0.000000 setrgbcolor
fill
newpath
315.734740 211.290180 moveto
344.517165 211.290180 lineto
344.517165 222.556082 lineto
315.734740 222.556082 lineto
closepath
0.000000 0.000000 0.000000 setrgbcolor
fill
newpath
350.186457 200.024277 moveto
378.968882 200.024277 lineto
378.968882 211.290180 lineto
350.186457 211.290180 lineto
closepath
0.000000 0.000000 0.000000 setrgbcolor
fill
newpath
384.638173 188.758375 moveto
413.420598 188.758375 lineto
413.420598 200.024277 lineto
384.638173 200.024277 lineto
closepath
0.000000 0.000000 0.000000 setrgbcolor
fill
newpath
419.089890 177.492472 moveto
447.872315 177.492472 lineto
447.872315 188.758375 lineto
419.089890 188.758375 lineto
closepath
0.000000 0.000000 0.000000 setrgbcolor
fill
newpath
5.669291 335.215106 moveto
34.451717 335.215106 lineto
34.451717 346.481008 lineto
5.669291 346.481008 lineto
closepath
0.000000 0.000000 0.000000 setrgbcolor
fill
newpath
40.121008 323.949203 moveto
68.903433 323.949203 lineto
68.903433 335.215106 lineto
40.121008 335.215106 lineto
closepath
0.000000 0.000000 0.000000 setrgbcolor
fill
newpath
74.572724 312.683301 moveto
103.355150 312.683301 lineto
103.355150 323.949203 lineto
74.572724 323.949203 lineto
closepath
0.000000 0.000000 0.000000 setrgbcolor
fill
newpath
109.024441 301.417398 moveto
137.806866 301.417398 lineto
137.806866 312.683301 lineto
109.024441 312.683301 lineto
closepath
0.000000 0.000000 0.000000 setrgbcolor
fill
newpath
143.476157 290.151496 moveto
172.258583 290.151496 lineto
172.258583 301.417398 lineto
143.476157 301.417398 lineto
closepath
0.000000 0.000000 0.000000 setrgbcolor
fill
newpath
177.927874 278.885594 moveto
206.710299 278.885594 lineto
206.710299 290.151496 lineto
177.927874 290.151496 lineto
closepath
0.000000 0.000000 0.000000 setrgbcolor
fill
newpath
212.379591 267.619691 moveto
241.162016 267.619691 lineto
241.162016 278.885594 lineto
212.379591 278.885594 lineto
closepath
0.000000 0.000000 0.000000 setrgbcolor
fill
newpath
246.831307 256.353789 moveto
275.613732 256.353789 lineto
275.613732 267.619691 lineto
246.831307 267.619691 lineto
closepath
0.000000 0.000000 0.000000 setrgbcolor
fill
newpath
281.283024 245.087887 moveto
310.065449 245.087887 lineto
310.065449 256.353789 lineto
281.283024 256.353789 lineto
closepath
0.000000 0.000000 0.000000 setrgbcolor
fill
newpath
315.734740 233.821984 moveto
344.517165 233.821984 lineto
344.517165 245.087887 lineto
315.734740 245.087887 lineto
closepath
0.000000 0.000000 0.000000 setrgbcolor
fill
newpath
350.186457 222.556082 moveto
378.968882 222.556082 lineto
378.968882 233.821984 lineto
350.186457 233.821984 lineto
closepath
0.000000 0.000000 0.000000 setrgbcolor
fill
newpath
384.638173 211.290180 moveto
413.420598 211.290180 lineto
413.420598 222.556082 lineto
384.638173 222.556082 lineto
closepath
0.000000 0.000000 0.000000 setrgbcolor
fill
newpath
419.089890 200.024277 moveto
447.872315 200.024277 lineto
447.872315 211.290180 lineto
419.089890 211.290180 lineto
closepath
0.000000 0.000000 0.000000 setrgbcolor
fill
newpath
5.669291 357.746910 moveto
34.451717 357.746910 lineto
34.451717 369.012813 lineto
5.669291 369.012813 lineto
closepath
0.000000 0.000000 0.000000 setrgbcolor
fill
newpath
40.121008 346.481008 moveto
68.903433 346.481008 lineto
68.903433 357.746910 lineto
40.121008 357.746910 lineto
closepath
0.000000 0.000000 0.000000 setrgbcolor
fill
newpath
74.572724 335.215106 moveto
103.355150 335.215106 lineto
103.355150 346.481008 lineto
74.572724 346.481008 lineto
closepath
0.000000 0.000000 0.000000 setrgbcolor
fill
newpath
109.024441 323.949203 moveto
137.806866 323.949203 lineto
137.806866 335.215106 lineto
109.024441 335.215106 lineto
closepath
0.000000 0.000000 0.000000 setrgbcolor
fill
newpath
143.476157 312.683301 moveto
172.258583 312.683301 lineto
172.258583 323.949203 lineto
143.476157 323.949203 lineto
closepath
0.000000 0.000000 0.000000 setrgbcolor
fill
newpath
177.927874 301.417398 moveto
206.710299 301.417398 lineto
206.710299 312.683301 lineto
177.927874 312.683301 lineto
closepath
0.000000 0.000000 0.000000 setrgbcolor
fill
newpath
212.379591 290.151496 moveto
241.162016 290.151496 lineto
241.162016 301.417398 lineto
212.379591 301.417398 lineto
closepath
0.000000 0.000000 0.000000 setrgbcolor
fill
newpath
246.831307 278.885594 moveto
275.613732 278.885594 lineto
275.613732 290.151496 lineto
246.831307 290.151496 lineto
closepath
0.000000 0.000000 0.000000 setrgbcolor
fill
newpath
281.283024 267.619691 moveto
310.065449 267.619691 lineto
310.065449 278.885594 lineto
281.283024 278.885594 lineto
closepath
0.000000 0.000000 0.000000 setrgbcolor
fill
newpath
315.734740 256.353789 moveto
344.517165 256.353789 lineto
344.517165 267.619691 lineto
315.734740 267.619691 lineto
closepath
0.000000 0.000000 0.000000 setrgbcolor
fill
newpath
350.186457 245.087887 moveto
378.968882 245.087887 lineto
378.968882 256.353789 lineto
350.186457 256.353789 lineto
closepath
0.000000 0.000000 0.000000 setrgbcolor
fill
newpath
384.638173 233.821984 moveto
413.420598 233.821984 lineto
413.420598 245.087887 lineto
384.638173 245.087887 lineto
closepath
0.000000 0.000000 0.000000 setrgbcolor
fill
newpath
419.089890 222.556082 moveto
447.872315 222.556082 lineto
447.872315 233.821984 lineto
419.089890 233.821984 lineto
closepath
0.000000 0.000000 0.000000 setrgbcolor
fill
newpath
5.669291 380.278715 moveto
34.451717 380.278715 lineto
34.451717 391.544617 lineto
5.669291 391.544617 lineto
closepath
0.000000 0.000000 0.000000 setrgbcolor
fill
newpath
40.121008 369.012813 moveto
68.903433 369.012813 lineto
68.903433 380.278715 lineto
40.121008 380.278715 lineto
closepath
0.000000 0.000000 0.000000 setrgbcolor
fill
newpath
74.572724 357.746910 moveto
103.355150 357.746910 lineto
103.355150 369.012813 lineto
74.572724 369.012813 lineto
closepath
0.000000 0.000000 0.000000 setrgbcolor
fill
newpath
109.024441 346.481008 moveto
137.806866 346.481008 lineto
137.806866 357.746910 lineto
109.024441 357.746910 lineto
closepath
0.000000 0.000000 0.000000 setrgbcolor
fill
newpath
143.476157 335.215106 moveto
172.258583 335.215106 lineto
172.258583 346.481008 lineto
143.476157 346.481008 lineto
closepath
0.000000 0.000000 0.000000 setrgbcolor
fill
newpath
177.927874 323.949203 moveto
206.710299 323.949203 lineto
206.710299 335.215106 lineto
177.927874 335.215106 lineto
closepath
0.000000 0.000000 0.000000 setrgbcolor
fill
newpath
212.379591 312.683301 moveto
241.162016 312.683301 lineto
241.162016 323.949203 lineto
212.379591 323.949203 lineto
closepath
0.000000 0.000000 0.000000 setrgbcolor
fill
newpath
246.831307 301.417398 moveto
275.613732 301.417398 lineto
275.613732 312.683301 lineto
246.831307 312.683301 lineto
closepath
0.000000 0.000000 0.000000 setrgbcolor
fill
newpath
281.283024 290.151496 moveto
310.065449 290.151496 lineto
310.065449 301.417398 lineto
281.283024 301.417398 lineto
closepath
0.000000 0.000000 0.000000 setrgbcolor
fill
newpath
315.734740 278.885594 moveto
344.517165 278.885594 lineto
344.517165 290.151496 lineto
315.734740 290.151496 lineto
closepath
0.000000 0.000000 0.000000 setrgbcolor
fill
newpath
350.186457 267.619691 moveto
378.968882 267.619691 lineto
378.968882 278.885594 lineto
350.186457 278.885594 lineto
closepath
0.000000 0.000000 0.000000 setrgbcolor
fill
newpath
384.638173 256.353789 moveto
413.420598 256.353789 lineto
413.420598 267.619691 lineto
384.638173 267.619691 lineto
closepath
0.000000 0.000000 0.000000 setrgbcolor
fill
newpath
419.089890 245.087887 moveto
447.872315 245.087887 lineto
447.872315 256.353789 lineto
419.089890 256.353789 lineto
closepath
0.000000 0.000000 0.000000 setrgbcolor
fill
newpath
5.669291 402.810520 moveto
34.451717 402.810520 lineto
34.451717 414.076422 lineto
5.669291 414.076422 lineto
closepath
0.000000 0.000000 0.000000 setrgbcolor
fill
newpath
40.121008 391.544617 moveto
68.903433 391.544617 lineto
68.903433 402.810520 lineto
40.121008 402.810520 lineto
closepath
0.000000 0.000000 0.000000 setrgbcolor
fill
newpath
74.572724 380.278715 moveto
103.355150 380.278715 lineto
103.355150 391.544617 lineto
74.572724 391.544617 lineto
closepath
0.000000 0.000000 0.000000 setrgbcolor
fill
newpath
109.024441 369.012813 moveto
137.806866 369.012813 lineto
137.806866 380.278715 lineto
109.024441 380.278715 lineto
closepath
0.000000 0.000000 0.000000 setrgbcolor
fill
newpath
143.476157 357.746910 moveto
172.258583 357.746910 lineto
172.258583 369.012813 lineto
143.476157 369.012813 lineto
closepath
0.000000 0.000000 0.000000 setrgbcolor
fill
newpath
177.927874 346.481008 moveto
206.710299 346.481008 lineto
206.710299 357.746910 lineto
177.927874 357.746910 lineto
closepath
0.000000 0.000000 0.000000 setrgbcolor
fill
newpath
212.379591 335.215106 moveto
241.162016 335.215106 lineto
241.162016 346.481008 lineto
212.379591 346.481008 lineto
closepath
0.000000 0.000000 0.000000 setrgbcolor
fill
newpath
246.831307 323.949203 moveto
275.613732 323.949203 lineto
275.613732 335.215106 lineto
246.831307 335.215106 lineto
closepath
0.000000 0.000000 0.000000 setrgbcolor
fill
newpath
281.283024 312.683301 moveto
310.065449 312.683301 lineto
310.065449 323.949203 lineto
281.283024 323.949203 lineto
closepath
0.000000 0.000000 0.000000 setrgbcolor
fill
newpath
315.734740 301.417398 moveto
344.517165 301.417398 lineto
344.517165 312.683301 lineto
315.734740 312.683301 lineto
closepath
0.000000 0.000000 0.000000 setrgbcolor
fill
newpath
350.186457 290.151496 moveto
378.968882 290.151496 lineto
378.968882 301.417398 lineto
350.186457 301.417398 lineto
closepath
0.000000 0.000000 0.000000 setrgbcolor
fill
newpath
384.638173 278.885594 moveto
413.420598 278.885594 lineto
413.420598 290.151496 lineto
384.638173 290.151496 lineto
closepath
0.000000 0.000000 0.000000 setrgbcolor
fill
newpath
419.089890 267.619691 moveto
447.872315 267.619691 lineto
447.872315 278.885594 lineto
419.089890 278.885594 lineto
closepath
0.000000 0.000000 0.000000 setrgbcolor
fill
newpath
5.669291 425.342324 moveto
34.451717 425.342324 lineto
34.451717 436.608227 lineto
5.669291 436.608227 lineto
closepath
0.000000 0.000000 0.000000 setrgbcolor
fill
newpath
40.121008 414.076422 moveto
68.903433 414.076422 lineto
68.903433 425.342324 lineto
40.121008 425.342324 lineto
closepath
0.000000 0.000000 0.000000 setrgbcolor
fill
newpath
74.572724 402.810520 moveto
103.355150 402.810520 lineto
103.355150 414.076422 lineto
74.572724 414.076422 lineto
closepath
0.000000 0.000000 0.000000 setrgbcolor
fill
newpath
109.024441 391.544617 moveto
137.806866 391.544617 lineto
137.806866 402.810520 lineto
109.024441 402.810520 lineto
closepath
0.000000 0.000000 0.000000 setrgbcolor
fill
newpath
143.476157 380.278715 moveto
172.258583 380.278715 lineto
172.258583 391.544617 lineto
143.476157 391.544617 lineto
closepath
0.000000 0.000000 0.000000 setrgbcolor
fill
newpath
177.927874 369.012813 moveto
206.710299 369.012813 lineto
206.710299 380.278715 lineto
177.927874 380.278715 lineto
closepath
0.000000 0.000000 0.000000 setrgbcolor
fill
newpath
212.379591 357.746910 moveto
241.162016 357.746910 lineto
241.162016 369.012813 lineto
212.379591 369.012813 lineto
closepath
0.000000 0.000000 0.000000 setrgbcolor
fill
newpath
246.831307 346.481008 moveto
275.613732 346.481008 lineto
275.613732 357.746910 lineto
246.831307 357.746910 lineto
closepath
0.000000 0.000000 0.000000 setrgbcolor
fill
newpath
281.283024 335.215106 moveto
310.065449 335.215106 lineto
310.065449 346.481008 lineto
281.283024 346.481008 lineto
closepath
0.000000 0.000000 0.000000 setrgbcolor
fill
newpath
315.734740 323.949203 moveto
344.517165 323.949203 lineto
344.517165 335.215106 lineto
315.734740 335.215106 lineto
closepath
0.000000 0.000000 0.000000 setrgbcolor
fill
newpath
350.186457 312.683301 moveto
378.968882 312.683301 lineto
378.968882 323.949203 lineto
350.186457 323.949203 lineto
closepath
0.000000 0.000000 0.000000 setrgbcolor
fill
newpath
384.638173 301.417398 moveto
413.420598 301.417398 lineto
413.420598 312.683301 lineto
384.638173 312.683301 lineto
closepath
0.000000 0.000000 0.000000 setrgbcolor
fill
newpath
419.089890 290.151496 moveto
447.872315 290.151496 lineto
447.872315 301.417398 lineto
419.089890 301.417398 lineto
closepath
0.000000 0.000000 0.000000 setrgbcolor
fill
newpath
5.669291 447.874129 moveto
34.451717 447.874129 lineto
34.451717 459.140031 lineto
5.669291 459.140031 lineto
closepath
0.000000 0.000000 0.000000 setrgbcolor
fill
newpath
40.121008 436.608227 moveto
68.903433 436.608227 lineto
68.903433 447.874129 lineto
40.121008 447.874129 lineto
closepath
0.000000 0.000000 0.000000 setrgbcolor
fill
newpath
74.572724 425.342324 moveto
103.355150 425.342324 lineto
103.355150 436.608227 lineto
74.572724 436.608227 lineto
closepath
0.000000 0.000000 0.000000 setrgbcolor
fill
newpath
109.024441 414.076422 moveto
137.806866 414.076422 lineto
137.806866 425.342324 lineto
109.024441 425.342324 lineto
closepath
0.000000 0.000000 0.000000 setrgbcolor
fill
newpath
143.476157 402.810520 moveto
172.258583 402.810520 lineto
172.258583 414.076422 lineto
143.476157 414.076422 lineto
closepath
0.000000 0.000000 0.000000 setrgbcolor
fill
newpath
177.927874 391.544617 moveto
206.710299 391.544617 lineto
206.710299 402.810520 lineto
177.927874 402.810520 lineto
closepath
0.000000 0.000000 0.000000 setrgbcolor
fill
newpath
212.379591 380.278715 moveto
241.162016 380.278715 lineto
241.162016 391.544617 lineto
212.379591 391.544617 lineto
closepath
0.000000 0.000000 0.000000 setrgbcolor
fill
newpath
246.831307 369.012813 moveto
275.613732 369.012813 lineto
275.613732 380.278715 lineto
246.831307 380.278715 lineto
closepath
0.000000 0.000000 0.000000 setrgbcolor
fill
newpath
281.283024 357.746910 moveto
310.065449 357.746910 lineto
310.065449 369.012813 lineto
281.283024 369.012813 lineto
closepath
0.000000 0.000000 0.000000 setrgbcolor
fill
newpath
315.734740 346.481008 moveto
344.517165 346.481008 lineto
344.517165 357.746910 lineto
315.734740 357.746910 lineto
closepath
0.000000 0.000000 0.000000 setrgbcolor
fill
newpath
350.186457 335.215106 moveto
378.968882 335.215106 lineto
378.968882 346.481008 lineto
350.186457 346.481008 lineto
closepath
0.000000 0.000000 0.000000 setrgbcolor
fill
newpath
384.638173 323.949203 moveto
413.420598 323.949203 lineto
413.420598 335.215106 lineto
384.638173 335.215106 lineto
closepath
0.000000 0.000000 0.000000 setrgbcolor
fill
newpath
419.089890 312.683301 moveto
447.872315 312.683301 lineto
447.872315 323.949203 lineto
419.089890 323.949203 lineto
closepath
0.000000 0.000000 0.000000 setrgbcolor
fill
newpath
40.121008 459.140031 moveto
68.903433 459.140031 lineto
68.903433 470.405934 lineto
40.121008 470.405934 lineto
closepath
0.000000 0.000000 0.000000 setrgbcolor
fill
newpath
74.572724 447.874129 moveto
103.355150 447.874129 lineto
103.355150 459.140031 lineto
74.572724 459.140031 lineto
closepath
0.000000 0.000000 0.000000 setrgbcolor
fill
newpath
109.024441 436.608227 moveto
137.806866 436.608227 lineto
137.806866 447.874129 lineto
109.024441 447.874129 lineto
closepath
0.000000 0.000000 0.000000 setrgbcolor
fill
newpath
143.476157 425.342324 moveto
172.258583 425.342324 lineto
172.258583 436.608227 lineto
143.476157 436.608227 lineto
closepath
0.000000 0.000000 0.000000 setrgbcolor
fill
newpath
177.927874 414.076422 moveto
206.710299 414.076422 lineto
206.710299 425.342324 lineto
177.927874 425.342324 lineto
closepath
0.000000 0.000000 0.000000 setrgbcolor
fill
newpath
212.379591 402.810520 moveto
241.162016 402.810520 lineto
241.162016 414.076422 lineto
212.379591 414.076422 lineto
closepath
0.000000 0.000000 0.000000 setrgbcolor
fill
newpath
246.831307 391.544617 moveto
275.613732 391.544617 lineto
275.613732 402.810520 lineto
246.831307 402.810520 lineto
closepath
0.000000 0.000000 0.000000 setrgbcolor
fill
newpath
281.283024 380.278715 moveto
310.065449 380.278715 lineto
310.065449 391.544617 lineto
281.283024 391.544617 lineto
closepath
0.000000 0.000000 0.000000 setrgbcolor
fill
newpath
315.734740 369.012813 moveto
344.517165 369.012813 lineto
344.517165 380.278715 lineto
315.734740 380.278715 lineto
closepath
0.000000 0.000000 0.000000 setrgbcolor
fill
newpath
350.186457 357.746910 moveto
378.968882 357.746910 lineto
378.968882 369.012813 lineto
350.186457 369.012813 lineto
closepath
0.000000 0.000000 0.000000 setrgbcolor
fill
newpath
384.638173 346.481008 moveto
413.420598 346.481008 lineto
413.420598 357.746910 lineto
384.638173 357.746910 lineto
closepath
0.000000 0.000000 0.000000 setrgbcolor
fill
newpath
419.089890 335.215106 moveto
447.872315 335.215106 lineto
447.872315 346.481008 lineto
419.089890 346.481008 lineto
closepath
0.000000 0.000000 0.000000 setrgbcolor
fill
newpath
109.024441 459.140031 moveto
137.806866 459.140031 lineto
137.806866 470.405934 lineto
109.024441 470.405934 lineto
closepath
0.000000 0.000000 0.000000 setrgbcolor
fill
newpath
143.476157 447.874129 moveto
172.258583 447.874129 lineto
172.258583 459.140031 lineto
143.476157 459.140031 lineto
closepath
0.000000 0.000000 0.000000 setrgbcolor
fill
newpath
177.927874 436.608227 moveto
206.710299 436.608227 lineto
206.710299 447.874129 lineto
177.927874 447.874129 lineto
closepath
0.000000 0.000000 0.000000 setrgbcolor
fill
newpath
212.379591 425.342324 moveto
241.162016 425.342324 lineto
241.162016 436.608227 lineto
212.379591 436.608227 lineto
closepath
0.000000 0.000000 0.000000 setrgbcolor
fill
newpath
246.831307 414.076422 moveto
275.613732 414.076422 lineto
275.613732 425.342324 lineto
246.831307 425.342324 lineto
closepath
0.000000 0.000000 0.000000 setrgbcolor
fill
newpath
281.283024 402.810520 moveto
310.065449 402.810520 lineto
310.065449 414.076422 lineto
281.283024 414.076422 lineto
closepath
0.000000 0.000000 0.000000 setrgbcolor
fill
newpath
315.734740 391.544617 moveto
344.517165 391.544617 lineto
344.517165 402.810520 lineto
315.734740 402.810520 lineto
closepath
0.000000 0.000000 0.000000 setrgbcolor
fill
newpath
350.186457 380.278715 moveto
378.968882 380.278715 lineto
378.968882 391.544617 lineto
350.186457 391.544617 lineto
closepath
0.000000 0.000000 0.000000 setrgbcolor
fill
newpath
384.638173 369.012813 moveto
413.420598 369.012813 lineto
413.420598 380.278715 lineto
384.638173 380.278715 lineto
closepath
0.000000 0.000000 0.000000 setrgbcolor
fill
newpath
419.089890 357.746910 moveto
447.872315 357.746910 lineto
447.872315 369.012813 lineto
419.089890 369.012813 lineto
closepath
0.000000 0.000000 0.000000 setrgbcolor
fill
newpath
177.927874 459.140031 moveto
206.710299 459.140031 lineto
206.710299 470.405934 lineto
177.927874 470.405934 lineto
closepath
0.000000 0.000000 0.000000 setrgbcolor
fill
newpath
212.379591 447.874129 moveto
241.162016 447.874129 lineto
241.162016 459.140031 lineto
212.379591 459.140031 lineto
closepath
0.000000 0.000000 0.000000 setrgbcolor
fill
newpath
246.831307 436.608227 moveto
275.613732 436.608227 lineto
275.613732 447.874129 lineto
246.831307 447.874129 lineto
closepath
0.000000 0.000000 0.000000 setrgbcolor
fill
newpath
281.283024 425.342324 moveto
310.065449 425.342324 lineto
310.065449 436.608227 lineto
281.283024 436.608227 lineto
closepath
0.000000 0.000000 0.000000 setrgbcolor
fill
newpath
315.734740 414.076422 moveto
344.517165 414.076422 lineto
344.517165 425.342324 lineto
315.734740 425.342324 lineto
closepath
0.000000 0.000000 0.000000 setrgbcolor
fill
newpath
350.186457 402.810520 moveto
378.968882 402.810520 lineto
378.968882 414.076422 lineto
350.186457 414.076422 lineto
closepath
0.000000 0.000000 0.000000 setrgbcolor
fill
newpath
384.638173 391.544617 moveto
413.420598 391.544617 lineto
413.420598 402.810520 lineto
384.638173 402.810520 lineto
closepath
0.000000 0.000000 0.000000 setrgbcolor
fill
newpath
419.089890 380.278715 moveto
447.872315 380.278715 lineto
447.872315 391.544617 lineto
419.089890 391.544617 lineto
closepath
0.000000 0.000000 0.000000 setrgbcolor
fill
newpath
246.831307 459.140031 moveto
275.613732 459.140031 lineto
275.613732 470.405934 lineto
246.831307 470.405934 lineto
closepath
0.000000 0.000000 0.000000 setrgbcolor
fill
newpath
281.283024 447.874129 moveto
310.065449 447.874129 lineto
310.065449 459.140031 lineto
281.283024 459.140031 lineto
closepath
0.000000 0.000000 0.000000 setrgbcolor
fill
newpath
315.734740 436.608227 moveto
344.517165 436.608227 lineto
344.517165 447.874129 lineto
315.734740 447.874129 lineto
closepath
0.000000 0.000000 0.000000 setrgbcolor
fill
newpath
350.186457 425.342324 moveto
378.968882 425.342324 lineto
378.968882 436.608227 lineto
350.186457 436.608227 lineto
closepath
0.000000 0.000000 0.000000 setrgbcolor
fill
newpath
384.638173 414.076422 moveto
413.420598 414.076422 lineto
413.420598 425.342324 lineto
384.638173 425.342324 lineto
closepath
0.000000 0.000000 0.000000 setrgbcolor
fill
newpath
419.089890 402.810520 moveto
447.872315 402.810520 lineto
447.872315 414.076422 lineto
419.089890 414.076422 lineto
closepath
0.000000 0.000000 0.000000 setrgbcolor
fill
newpath
315.734740 459.140031 moveto
344.517165 459.140031 lineto
344.517165 470.405934 lineto
315.734740 470.405934 lineto
closepath
0.000000 0.000000 0.000000 setrgbcolor
fill
newpath
350.186457 447.874129 moveto
378.968882 447.874129 lineto
378.968882 459.140031 lineto
350.186457 459.140031 lineto
closepath
0.000000 0.000000 0.000000 setrgbcolor
fill
newpath
384.638173 436.608227 moveto
413.420598 436.608227 lineto
413.420598 447.874129 lineto
384.638173 447.874129 lineto
closepath
0.000000 0.000000 0.000000 setrgbcolor
fill
newpath
419.089890 425.342324 moveto
447.872315 425.342324 lineto
447.872315 436.608227 lineto
419.089890 436.608227 lineto
closepath
0.000000 0.000000 0.000000 setrgbcolor
fill
newpath
384.638173 459.140031 moveto
413.420598 459.140031 lineto
413.420598 470.405934 lineto
384.638173 470.405934 lineto
closepath
0.000000 0.000000 0.000000 setrgbcolor
fill
newpath
419.089890 447.874129 moveto
447.872315 447.874129 lineto
447.872315 459.140031 lineto
419.089890 459.140031 lineto
closepath
0.000000 0.000000 0.000000 setrgbcolor
fill
